%TF.GenerationSoftware,KiCad,Pcbnew,4.0.2+dfsg1-stable*%
%TF.CreationDate,2016-04-07T10:07:49+01:00*%
%TF.ProjectId,IsolatedCurrentProbe,49736F6C6174656443757272656E7450,1.0*%
%TF.FileFunction,Copper,L2,Bot,Signal*%
%FSLAX46Y46*%
G04 Gerber Fmt 4.6, Leading zero omitted, Abs format (unit mm)*
G04 Created by KiCad (PCBNEW 4.0.2+dfsg1-stable) date Thu 07 Apr 2016 10:07:49 BST*
%MOMM*%
G01*
G04 APERTURE LIST*
%ADD10C,0.100000*%
%ADD11R,1.400000X1.400000*%
%ADD12C,1.400000*%
%ADD13R,1.727200X2.032000*%
%ADD14O,1.727200X2.032000*%
%ADD15R,2.032000X1.727200*%
%ADD16O,2.032000X1.727200*%
%ADD17C,1.998980*%
%ADD18C,1.524000*%
%ADD19O,1.600000X1.600000*%
%ADD20C,0.250000*%
%ADD21C,0.500000*%
%ADD22C,0.254000*%
G04 APERTURE END LIST*
D10*
D11*
X172720000Y-106680000D03*
D12*
X172720000Y-111680000D03*
D11*
X165100000Y-119380000D03*
D12*
X160100000Y-119380000D03*
D11*
X167640000Y-96520000D03*
D12*
X162640000Y-96520000D03*
D13*
X165100000Y-124460000D03*
D14*
X162560000Y-124460000D03*
X160020000Y-124460000D03*
D15*
X177800000Y-106680000D03*
D16*
X177800000Y-109220000D03*
X177800000Y-111760000D03*
D17*
X162560000Y-101600000D03*
X154940000Y-101600000D03*
X172720000Y-101600000D03*
X165100000Y-101600000D03*
D18*
X154940000Y-111760000D03*
X154940000Y-114300000D03*
X154940000Y-109220000D03*
D19*
X160020000Y-106680000D03*
X160020000Y-109220000D03*
X160020000Y-111760000D03*
X160020000Y-114300000D03*
X167640000Y-114300000D03*
X167640000Y-111760000D03*
X167640000Y-109220000D03*
X167640000Y-106680000D03*
D20*
X162640000Y-96520000D02*
X162560000Y-96520000D01*
D21*
X162560000Y-96520000D02*
X160020000Y-99060000D01*
X162560000Y-111760000D02*
X160020000Y-114300000D01*
X162560000Y-106680000D02*
X162560000Y-111760000D01*
X160020000Y-104140000D02*
X162560000Y-106680000D01*
X160020000Y-99060000D02*
X160020000Y-104140000D01*
X160020000Y-124460000D02*
X162560000Y-127000000D01*
X162560000Y-127000000D02*
X167640000Y-127000000D01*
X167640000Y-127000000D02*
X172720000Y-121920000D01*
X172720000Y-121920000D02*
X172720000Y-111680000D01*
X172720000Y-111680000D02*
X177720000Y-111680000D01*
D20*
X177720000Y-111680000D02*
X177800000Y-111760000D01*
D21*
X160100000Y-119380000D02*
X160100000Y-124380000D01*
D20*
X160100000Y-124380000D02*
X160020000Y-124460000D01*
D21*
X160020000Y-114300000D02*
X160020000Y-119300000D01*
D20*
X160020000Y-119300000D02*
X160100000Y-119380000D01*
D21*
X154940000Y-114300000D02*
X160020000Y-114300000D01*
X162560000Y-124460000D02*
X162560000Y-116840000D01*
X162560000Y-116840000D02*
X165100000Y-114300000D01*
X165100000Y-114300000D02*
X167640000Y-114300000D01*
X172720000Y-101600000D02*
X170180000Y-104140000D01*
X170180000Y-104140000D02*
X170180000Y-106680000D01*
X170180000Y-106680000D02*
X167640000Y-109220000D01*
X167640000Y-109220000D02*
X177800000Y-109220000D01*
X165100000Y-101600000D02*
X165100000Y-109220000D01*
X165100000Y-109220000D02*
X167640000Y-111760000D01*
X162560000Y-101600000D02*
X165100000Y-101600000D01*
X154940000Y-101600000D02*
X154940000Y-104140000D01*
X154940000Y-104140000D02*
X157480000Y-106680000D01*
X157480000Y-106680000D02*
X160020000Y-106680000D01*
X160020000Y-106680000D02*
X160020000Y-109220000D01*
X154940000Y-111760000D02*
X160020000Y-111760000D01*
D22*
G36*
X182170000Y-128830000D02*
X148030000Y-128830000D01*
X148030000Y-124882815D01*
X150264630Y-124882815D01*
X150588980Y-125667800D01*
X151189041Y-126268909D01*
X151973459Y-126594628D01*
X152822815Y-126595370D01*
X153607800Y-126271020D01*
X154208909Y-125670959D01*
X154534628Y-124886541D01*
X154534684Y-124821913D01*
X158534816Y-124821913D01*
X158728046Y-125374320D01*
X159117964Y-125810732D01*
X159645209Y-126064709D01*
X159660974Y-126067358D01*
X159893000Y-125946217D01*
X159893000Y-124587000D01*
X158679076Y-124587000D01*
X158534816Y-124821913D01*
X154534684Y-124821913D01*
X154535316Y-124098087D01*
X158534816Y-124098087D01*
X158679076Y-124333000D01*
X159893000Y-124333000D01*
X159893000Y-122973783D01*
X160147000Y-122973783D01*
X160147000Y-124333000D01*
X160167000Y-124333000D01*
X160167000Y-124587000D01*
X160147000Y-124587000D01*
X160147000Y-125946217D01*
X160379026Y-126067358D01*
X160394791Y-126064709D01*
X160922036Y-125810732D01*
X161293539Y-125394931D01*
X161500330Y-125704415D01*
X161986511Y-126029271D01*
X162560000Y-126143345D01*
X163133489Y-126029271D01*
X163619670Y-125704415D01*
X163629243Y-125690087D01*
X163633238Y-125711317D01*
X163772310Y-125927441D01*
X163984510Y-126072431D01*
X164236400Y-126123440D01*
X165963600Y-126123440D01*
X166198917Y-126079162D01*
X166415041Y-125940090D01*
X166560031Y-125727890D01*
X166611040Y-125476000D01*
X166611040Y-124882815D01*
X175664630Y-124882815D01*
X175988980Y-125667800D01*
X176589041Y-126268909D01*
X177373459Y-126594628D01*
X178222815Y-126595370D01*
X179007800Y-126271020D01*
X179608909Y-125670959D01*
X179934628Y-124886541D01*
X179935370Y-124037185D01*
X179611020Y-123252200D01*
X179010959Y-122651091D01*
X178226541Y-122325372D01*
X177377185Y-122324630D01*
X176592200Y-122648980D01*
X175991091Y-123249041D01*
X175665372Y-124033459D01*
X175664630Y-124882815D01*
X166611040Y-124882815D01*
X166611040Y-123444000D01*
X166566762Y-123208683D01*
X166427690Y-122992559D01*
X166215490Y-122847569D01*
X165963600Y-122796560D01*
X164236400Y-122796560D01*
X164001083Y-122840838D01*
X163784959Y-122979910D01*
X163639969Y-123192110D01*
X163631600Y-123233439D01*
X163619670Y-123215585D01*
X163445000Y-123098874D01*
X163445000Y-118680000D01*
X163752560Y-118680000D01*
X163752560Y-120080000D01*
X163796838Y-120315317D01*
X163935910Y-120531441D01*
X164148110Y-120676431D01*
X164400000Y-120727440D01*
X165800000Y-120727440D01*
X166035317Y-120683162D01*
X166251441Y-120544090D01*
X166396431Y-120331890D01*
X166447440Y-120080000D01*
X166447440Y-118680000D01*
X166403162Y-118444683D01*
X166264090Y-118228559D01*
X166051890Y-118083569D01*
X165800000Y-118032560D01*
X164400000Y-118032560D01*
X164164683Y-118076838D01*
X163948559Y-118215910D01*
X163803569Y-118428110D01*
X163752560Y-118680000D01*
X163445000Y-118680000D01*
X163445000Y-117206580D01*
X165466579Y-115185000D01*
X166510527Y-115185000D01*
X166597189Y-115314698D01*
X167062736Y-115625767D01*
X167611887Y-115735000D01*
X167668113Y-115735000D01*
X168217264Y-115625767D01*
X168682811Y-115314698D01*
X168993880Y-114849151D01*
X169103113Y-114300000D01*
X168993880Y-113750849D01*
X168682811Y-113285302D01*
X168300725Y-113030000D01*
X168682811Y-112774698D01*
X168789334Y-112615275D01*
X171964331Y-112615275D01*
X172026169Y-112851042D01*
X172527122Y-113027419D01*
X173057440Y-112998664D01*
X173413831Y-112851042D01*
X173475669Y-112615275D01*
X172720000Y-111859605D01*
X171964331Y-112615275D01*
X168789334Y-112615275D01*
X168993880Y-112309151D01*
X169103113Y-111760000D01*
X169048835Y-111487122D01*
X171372581Y-111487122D01*
X171401336Y-112017440D01*
X171548958Y-112373831D01*
X171784725Y-112435669D01*
X172540395Y-111680000D01*
X172899605Y-111680000D01*
X173655275Y-112435669D01*
X173891042Y-112373831D01*
X173980754Y-112119026D01*
X176192642Y-112119026D01*
X176195291Y-112134791D01*
X176449268Y-112662036D01*
X176885680Y-113051954D01*
X177438087Y-113245184D01*
X177673000Y-113100924D01*
X177673000Y-111887000D01*
X177927000Y-111887000D01*
X177927000Y-113100924D01*
X178161913Y-113245184D01*
X178714320Y-113051954D01*
X179150732Y-112662036D01*
X179404709Y-112134791D01*
X179407358Y-112119026D01*
X179286217Y-111887000D01*
X177927000Y-111887000D01*
X177673000Y-111887000D01*
X176313783Y-111887000D01*
X176192642Y-112119026D01*
X173980754Y-112119026D01*
X174067419Y-111872878D01*
X174038664Y-111342560D01*
X173891042Y-110986169D01*
X173655275Y-110924331D01*
X172899605Y-111680000D01*
X172540395Y-111680000D01*
X171784725Y-110924331D01*
X171548958Y-110986169D01*
X171372581Y-111487122D01*
X169048835Y-111487122D01*
X168993880Y-111210849D01*
X168682811Y-110745302D01*
X168681948Y-110744725D01*
X171964331Y-110744725D01*
X172720000Y-111500395D01*
X173475669Y-110744725D01*
X173413831Y-110508958D01*
X172912878Y-110332581D01*
X172382560Y-110361336D01*
X172026169Y-110508958D01*
X171964331Y-110744725D01*
X168681948Y-110744725D01*
X168300725Y-110490000D01*
X168682811Y-110234698D01*
X168769473Y-110105000D01*
X176438874Y-110105000D01*
X176555585Y-110279670D01*
X176865069Y-110486461D01*
X176449268Y-110857964D01*
X176195291Y-111385209D01*
X176192642Y-111400974D01*
X176313783Y-111633000D01*
X177673000Y-111633000D01*
X177673000Y-111613000D01*
X177927000Y-111613000D01*
X177927000Y-111633000D01*
X179286217Y-111633000D01*
X179407358Y-111400974D01*
X179404709Y-111385209D01*
X179150732Y-110857964D01*
X178734931Y-110486461D01*
X179044415Y-110279670D01*
X179369271Y-109793489D01*
X179483345Y-109220000D01*
X179369271Y-108646511D01*
X179044415Y-108160330D01*
X179030087Y-108150757D01*
X179051317Y-108146762D01*
X179267441Y-108007690D01*
X179412431Y-107795490D01*
X179463440Y-107543600D01*
X179463440Y-105816400D01*
X179419162Y-105581083D01*
X179280090Y-105364959D01*
X179067890Y-105219969D01*
X178816000Y-105168960D01*
X176784000Y-105168960D01*
X176548683Y-105213238D01*
X176332559Y-105352310D01*
X176187569Y-105564510D01*
X176136560Y-105816400D01*
X176136560Y-107543600D01*
X176180838Y-107778917D01*
X176319910Y-107995041D01*
X176532110Y-108140031D01*
X176573439Y-108148400D01*
X176555585Y-108160330D01*
X176438874Y-108335000D01*
X169776579Y-108335000D01*
X170805787Y-107305792D01*
X170805790Y-107305790D01*
X170997633Y-107018675D01*
X171065000Y-106680000D01*
X171065000Y-105980000D01*
X171372560Y-105980000D01*
X171372560Y-107380000D01*
X171416838Y-107615317D01*
X171555910Y-107831441D01*
X171768110Y-107976431D01*
X172020000Y-108027440D01*
X173420000Y-108027440D01*
X173655317Y-107983162D01*
X173871441Y-107844090D01*
X174016431Y-107631890D01*
X174067440Y-107380000D01*
X174067440Y-105980000D01*
X174023162Y-105744683D01*
X173884090Y-105528559D01*
X173671890Y-105383569D01*
X173420000Y-105332560D01*
X172020000Y-105332560D01*
X171784683Y-105376838D01*
X171568559Y-105515910D01*
X171423569Y-105728110D01*
X171372560Y-105980000D01*
X171065000Y-105980000D01*
X171065000Y-104506580D01*
X172353827Y-103217752D01*
X172393453Y-103234206D01*
X173043694Y-103234774D01*
X173644655Y-102986462D01*
X174104846Y-102527073D01*
X174354206Y-101926547D01*
X174354774Y-101276306D01*
X174106462Y-100675345D01*
X173647073Y-100215154D01*
X173046547Y-99965794D01*
X172396306Y-99965226D01*
X171795345Y-100213538D01*
X171335154Y-100672927D01*
X171085794Y-101273453D01*
X171085226Y-101923694D01*
X171102623Y-101965798D01*
X169554210Y-103514210D01*
X169362367Y-103801325D01*
X169362367Y-103801326D01*
X169294999Y-104140000D01*
X169295000Y-104140005D01*
X169295000Y-106313421D01*
X169074130Y-106534291D01*
X168993880Y-106130849D01*
X168682811Y-105665302D01*
X168217264Y-105354233D01*
X167668113Y-105245000D01*
X167611887Y-105245000D01*
X167062736Y-105354233D01*
X166597189Y-105665302D01*
X166286120Y-106130849D01*
X166176887Y-106680000D01*
X166286120Y-107229151D01*
X166597189Y-107694698D01*
X166979275Y-107950000D01*
X166597189Y-108205302D01*
X166286120Y-108670849D01*
X166205870Y-109074291D01*
X165985000Y-108853420D01*
X165985000Y-103002847D01*
X166024655Y-102986462D01*
X166484846Y-102527073D01*
X166734206Y-101926547D01*
X166734774Y-101276306D01*
X166486462Y-100675345D01*
X166027073Y-100215154D01*
X165426547Y-99965794D01*
X164776306Y-99965226D01*
X164175345Y-100213538D01*
X163829801Y-100558480D01*
X163487073Y-100215154D01*
X162886547Y-99965794D01*
X162236306Y-99965226D01*
X161635345Y-100213538D01*
X161175154Y-100672927D01*
X160925794Y-101273453D01*
X160925226Y-101923694D01*
X161173538Y-102524655D01*
X161632927Y-102984846D01*
X162233453Y-103234206D01*
X162883694Y-103234774D01*
X163484655Y-102986462D01*
X163830199Y-102641520D01*
X164172927Y-102984846D01*
X164215000Y-103002316D01*
X164215000Y-109219995D01*
X164214999Y-109220000D01*
X164270032Y-109496661D01*
X164282367Y-109558675D01*
X164423002Y-109769151D01*
X164474210Y-109845790D01*
X166211983Y-111583562D01*
X166176887Y-111760000D01*
X166286120Y-112309151D01*
X166597189Y-112774698D01*
X166979275Y-113030000D01*
X166597189Y-113285302D01*
X166510527Y-113415000D01*
X165100000Y-113415000D01*
X164761325Y-113482367D01*
X164474210Y-113674210D01*
X164474208Y-113674213D01*
X161934210Y-116214210D01*
X161742367Y-116501325D01*
X161742367Y-116501326D01*
X161674999Y-116840000D01*
X161675000Y-116840005D01*
X161675000Y-123098874D01*
X161500330Y-123215585D01*
X161293539Y-123525069D01*
X160922036Y-123109268D01*
X160394791Y-122855291D01*
X160379026Y-122852642D01*
X160147000Y-122973783D01*
X159893000Y-122973783D01*
X159660974Y-122852642D01*
X159645209Y-122855291D01*
X159117964Y-123109268D01*
X158728046Y-123545680D01*
X158534816Y-124098087D01*
X154535316Y-124098087D01*
X154535370Y-124037185D01*
X154211020Y-123252200D01*
X153610959Y-122651091D01*
X152826541Y-122325372D01*
X151977185Y-122324630D01*
X151192200Y-122648980D01*
X150591091Y-123249041D01*
X150265372Y-124033459D01*
X150264630Y-124882815D01*
X148030000Y-124882815D01*
X148030000Y-120315275D01*
X159344331Y-120315275D01*
X159406169Y-120551042D01*
X159907122Y-120727419D01*
X160437440Y-120698664D01*
X160793831Y-120551042D01*
X160855669Y-120315275D01*
X160100000Y-119559605D01*
X159344331Y-120315275D01*
X148030000Y-120315275D01*
X148030000Y-119187122D01*
X158752581Y-119187122D01*
X158781336Y-119717440D01*
X158928958Y-120073831D01*
X159164725Y-120135669D01*
X159920395Y-119380000D01*
X160279605Y-119380000D01*
X161035275Y-120135669D01*
X161271042Y-120073831D01*
X161447419Y-119572878D01*
X161418664Y-119042560D01*
X161271042Y-118686169D01*
X161035275Y-118624331D01*
X160279605Y-119380000D01*
X159920395Y-119380000D01*
X159164725Y-118624331D01*
X158928958Y-118686169D01*
X158752581Y-119187122D01*
X148030000Y-119187122D01*
X148030000Y-118444725D01*
X159344331Y-118444725D01*
X160100000Y-119200395D01*
X160855669Y-118444725D01*
X160793831Y-118208958D01*
X160292878Y-118032581D01*
X159762560Y-118061336D01*
X159406169Y-118208958D01*
X159344331Y-118444725D01*
X148030000Y-118444725D01*
X148030000Y-115280213D01*
X154139392Y-115280213D01*
X154208857Y-115522397D01*
X154732302Y-115709144D01*
X155287368Y-115681362D01*
X155671143Y-115522397D01*
X155740608Y-115280213D01*
X154940000Y-114479605D01*
X154139392Y-115280213D01*
X148030000Y-115280213D01*
X148030000Y-114092302D01*
X153530856Y-114092302D01*
X153558638Y-114647368D01*
X153717603Y-115031143D01*
X153959787Y-115100608D01*
X154760395Y-114300000D01*
X155119605Y-114300000D01*
X155920213Y-115100608D01*
X156162397Y-115031143D01*
X156298718Y-114649039D01*
X158628096Y-114649039D01*
X158788959Y-115037423D01*
X159164866Y-115452389D01*
X159670959Y-115691914D01*
X159893000Y-115570629D01*
X159893000Y-114427000D01*
X160147000Y-114427000D01*
X160147000Y-115570629D01*
X160369041Y-115691914D01*
X160875134Y-115452389D01*
X161251041Y-115037423D01*
X161411904Y-114649039D01*
X161289915Y-114427000D01*
X160147000Y-114427000D01*
X159893000Y-114427000D01*
X158750085Y-114427000D01*
X158628096Y-114649039D01*
X156298718Y-114649039D01*
X156349144Y-114507698D01*
X156321362Y-113952632D01*
X156162397Y-113568857D01*
X155920213Y-113499392D01*
X155119605Y-114300000D01*
X154760395Y-114300000D01*
X153959787Y-113499392D01*
X153717603Y-113568857D01*
X153530856Y-114092302D01*
X148030000Y-114092302D01*
X148030000Y-101923694D01*
X153305226Y-101923694D01*
X153553538Y-102524655D01*
X154012927Y-102984846D01*
X154055000Y-103002316D01*
X154055000Y-104139995D01*
X154054999Y-104140000D01*
X154111190Y-104422484D01*
X154122367Y-104478675D01*
X154314210Y-104765790D01*
X156854208Y-107305787D01*
X156854210Y-107305790D01*
X157141325Y-107497633D01*
X157480000Y-107565000D01*
X158890527Y-107565000D01*
X158977189Y-107694698D01*
X159135000Y-107800144D01*
X159135000Y-108099856D01*
X158977189Y-108205302D01*
X158666120Y-108670849D01*
X158556887Y-109220000D01*
X158666120Y-109769151D01*
X158977189Y-110234698D01*
X159359275Y-110490000D01*
X158977189Y-110745302D01*
X158890527Y-110875000D01*
X156030478Y-110875000D01*
X155732370Y-110576371D01*
X155524488Y-110490051D01*
X155730303Y-110405010D01*
X156123629Y-110012370D01*
X156336757Y-109499100D01*
X156337242Y-108943339D01*
X156125010Y-108429697D01*
X155732370Y-108036371D01*
X155219100Y-107823243D01*
X154663339Y-107822758D01*
X154149697Y-108034990D01*
X153756371Y-108427630D01*
X153543243Y-108940900D01*
X153542758Y-109496661D01*
X153754990Y-110010303D01*
X154147630Y-110403629D01*
X154355512Y-110489949D01*
X154149697Y-110574990D01*
X153756371Y-110967630D01*
X153543243Y-111480900D01*
X153542758Y-112036661D01*
X153754990Y-112550303D01*
X154147630Y-112943629D01*
X154339727Y-113023395D01*
X154208857Y-113077603D01*
X154139392Y-113319787D01*
X154940000Y-114120395D01*
X155740608Y-113319787D01*
X155671143Y-113077603D01*
X155530682Y-113027491D01*
X155730303Y-112945010D01*
X156030837Y-112645000D01*
X158890527Y-112645000D01*
X158977189Y-112774698D01*
X159381703Y-113044986D01*
X159164866Y-113147611D01*
X158788959Y-113562577D01*
X158628096Y-113950961D01*
X158750085Y-114173000D01*
X159893000Y-114173000D01*
X159893000Y-114153000D01*
X160147000Y-114153000D01*
X160147000Y-114173000D01*
X161289915Y-114173000D01*
X161411904Y-113950961D01*
X161251041Y-113562577D01*
X160875134Y-113147611D01*
X160658297Y-113044986D01*
X161062811Y-112774698D01*
X161373880Y-112309151D01*
X161483113Y-111760000D01*
X161373880Y-111210849D01*
X161062811Y-110745302D01*
X160680725Y-110490000D01*
X161062811Y-110234698D01*
X161373880Y-109769151D01*
X161483113Y-109220000D01*
X161373880Y-108670849D01*
X161062811Y-108205302D01*
X160905000Y-108099856D01*
X160905000Y-107800144D01*
X161062811Y-107694698D01*
X161373880Y-107229151D01*
X161483113Y-106680000D01*
X161373880Y-106130849D01*
X161062811Y-105665302D01*
X160597264Y-105354233D01*
X160048113Y-105245000D01*
X159991887Y-105245000D01*
X159442736Y-105354233D01*
X158977189Y-105665302D01*
X158890527Y-105795000D01*
X157846579Y-105795000D01*
X155825000Y-103773420D01*
X155825000Y-103002847D01*
X155864655Y-102986462D01*
X156324846Y-102527073D01*
X156574206Y-101926547D01*
X156574774Y-101276306D01*
X156326462Y-100675345D01*
X155867073Y-100215154D01*
X155266547Y-99965794D01*
X154616306Y-99965226D01*
X154015345Y-100213538D01*
X153555154Y-100672927D01*
X153305794Y-101273453D01*
X153305226Y-101923694D01*
X148030000Y-101923694D01*
X148030000Y-97455275D01*
X161884331Y-97455275D01*
X161946169Y-97691042D01*
X162447122Y-97867419D01*
X162977440Y-97838664D01*
X163333831Y-97691042D01*
X163395669Y-97455275D01*
X162640000Y-96699605D01*
X161884331Y-97455275D01*
X148030000Y-97455275D01*
X148030000Y-96327122D01*
X161292581Y-96327122D01*
X161321336Y-96857440D01*
X161468958Y-97213831D01*
X161704725Y-97275669D01*
X162460395Y-96520000D01*
X162819605Y-96520000D01*
X163575275Y-97275669D01*
X163811042Y-97213831D01*
X163987419Y-96712878D01*
X163958664Y-96182560D01*
X163811042Y-95826169D01*
X163787522Y-95820000D01*
X166292560Y-95820000D01*
X166292560Y-97220000D01*
X166336838Y-97455317D01*
X166475910Y-97671441D01*
X166688110Y-97816431D01*
X166940000Y-97867440D01*
X168340000Y-97867440D01*
X168575317Y-97823162D01*
X168791441Y-97684090D01*
X168936431Y-97471890D01*
X168987440Y-97220000D01*
X168987440Y-95820000D01*
X168943162Y-95584683D01*
X168804090Y-95368559D01*
X168591890Y-95223569D01*
X168340000Y-95172560D01*
X166940000Y-95172560D01*
X166704683Y-95216838D01*
X166488559Y-95355910D01*
X166343569Y-95568110D01*
X166292560Y-95820000D01*
X163787522Y-95820000D01*
X163575275Y-95764331D01*
X162819605Y-96520000D01*
X162460395Y-96520000D01*
X161704725Y-95764331D01*
X161468958Y-95826169D01*
X161292581Y-96327122D01*
X148030000Y-96327122D01*
X148030000Y-94402815D01*
X150264630Y-94402815D01*
X150588980Y-95187800D01*
X151189041Y-95788909D01*
X151973459Y-96114628D01*
X152822815Y-96115370D01*
X153607800Y-95791020D01*
X153814455Y-95584725D01*
X161884331Y-95584725D01*
X162640000Y-96340395D01*
X163395669Y-95584725D01*
X163333831Y-95348958D01*
X162832878Y-95172581D01*
X162302560Y-95201336D01*
X161946169Y-95348958D01*
X161884331Y-95584725D01*
X153814455Y-95584725D01*
X154208909Y-95190959D01*
X154534628Y-94406541D01*
X154534631Y-94402815D01*
X175664630Y-94402815D01*
X175988980Y-95187800D01*
X176589041Y-95788909D01*
X177373459Y-96114628D01*
X178222815Y-96115370D01*
X179007800Y-95791020D01*
X179608909Y-95190959D01*
X179934628Y-94406541D01*
X179935370Y-93557185D01*
X179611020Y-92772200D01*
X179010959Y-92171091D01*
X178226541Y-91845372D01*
X177377185Y-91844630D01*
X176592200Y-92168980D01*
X175991091Y-92769041D01*
X175665372Y-93553459D01*
X175664630Y-94402815D01*
X154534631Y-94402815D01*
X154535370Y-93557185D01*
X154211020Y-92772200D01*
X153610959Y-92171091D01*
X152826541Y-91845372D01*
X151977185Y-91844630D01*
X151192200Y-92168980D01*
X150591091Y-92769041D01*
X150265372Y-93553459D01*
X150264630Y-94402815D01*
X148030000Y-94402815D01*
X148030000Y-89610000D01*
X182170000Y-89610000D01*
X182170000Y-128830000D01*
X182170000Y-128830000D01*
G37*
X182170000Y-128830000D02*
X148030000Y-128830000D01*
X148030000Y-124882815D01*
X150264630Y-124882815D01*
X150588980Y-125667800D01*
X151189041Y-126268909D01*
X151973459Y-126594628D01*
X152822815Y-126595370D01*
X153607800Y-126271020D01*
X154208909Y-125670959D01*
X154534628Y-124886541D01*
X154534684Y-124821913D01*
X158534816Y-124821913D01*
X158728046Y-125374320D01*
X159117964Y-125810732D01*
X159645209Y-126064709D01*
X159660974Y-126067358D01*
X159893000Y-125946217D01*
X159893000Y-124587000D01*
X158679076Y-124587000D01*
X158534816Y-124821913D01*
X154534684Y-124821913D01*
X154535316Y-124098087D01*
X158534816Y-124098087D01*
X158679076Y-124333000D01*
X159893000Y-124333000D01*
X159893000Y-122973783D01*
X160147000Y-122973783D01*
X160147000Y-124333000D01*
X160167000Y-124333000D01*
X160167000Y-124587000D01*
X160147000Y-124587000D01*
X160147000Y-125946217D01*
X160379026Y-126067358D01*
X160394791Y-126064709D01*
X160922036Y-125810732D01*
X161293539Y-125394931D01*
X161500330Y-125704415D01*
X161986511Y-126029271D01*
X162560000Y-126143345D01*
X163133489Y-126029271D01*
X163619670Y-125704415D01*
X163629243Y-125690087D01*
X163633238Y-125711317D01*
X163772310Y-125927441D01*
X163984510Y-126072431D01*
X164236400Y-126123440D01*
X165963600Y-126123440D01*
X166198917Y-126079162D01*
X166415041Y-125940090D01*
X166560031Y-125727890D01*
X166611040Y-125476000D01*
X166611040Y-124882815D01*
X175664630Y-124882815D01*
X175988980Y-125667800D01*
X176589041Y-126268909D01*
X177373459Y-126594628D01*
X178222815Y-126595370D01*
X179007800Y-126271020D01*
X179608909Y-125670959D01*
X179934628Y-124886541D01*
X179935370Y-124037185D01*
X179611020Y-123252200D01*
X179010959Y-122651091D01*
X178226541Y-122325372D01*
X177377185Y-122324630D01*
X176592200Y-122648980D01*
X175991091Y-123249041D01*
X175665372Y-124033459D01*
X175664630Y-124882815D01*
X166611040Y-124882815D01*
X166611040Y-123444000D01*
X166566762Y-123208683D01*
X166427690Y-122992559D01*
X166215490Y-122847569D01*
X165963600Y-122796560D01*
X164236400Y-122796560D01*
X164001083Y-122840838D01*
X163784959Y-122979910D01*
X163639969Y-123192110D01*
X163631600Y-123233439D01*
X163619670Y-123215585D01*
X163445000Y-123098874D01*
X163445000Y-118680000D01*
X163752560Y-118680000D01*
X163752560Y-120080000D01*
X163796838Y-120315317D01*
X163935910Y-120531441D01*
X164148110Y-120676431D01*
X164400000Y-120727440D01*
X165800000Y-120727440D01*
X166035317Y-120683162D01*
X166251441Y-120544090D01*
X166396431Y-120331890D01*
X166447440Y-120080000D01*
X166447440Y-118680000D01*
X166403162Y-118444683D01*
X166264090Y-118228559D01*
X166051890Y-118083569D01*
X165800000Y-118032560D01*
X164400000Y-118032560D01*
X164164683Y-118076838D01*
X163948559Y-118215910D01*
X163803569Y-118428110D01*
X163752560Y-118680000D01*
X163445000Y-118680000D01*
X163445000Y-117206580D01*
X165466579Y-115185000D01*
X166510527Y-115185000D01*
X166597189Y-115314698D01*
X167062736Y-115625767D01*
X167611887Y-115735000D01*
X167668113Y-115735000D01*
X168217264Y-115625767D01*
X168682811Y-115314698D01*
X168993880Y-114849151D01*
X169103113Y-114300000D01*
X168993880Y-113750849D01*
X168682811Y-113285302D01*
X168300725Y-113030000D01*
X168682811Y-112774698D01*
X168789334Y-112615275D01*
X171964331Y-112615275D01*
X172026169Y-112851042D01*
X172527122Y-113027419D01*
X173057440Y-112998664D01*
X173413831Y-112851042D01*
X173475669Y-112615275D01*
X172720000Y-111859605D01*
X171964331Y-112615275D01*
X168789334Y-112615275D01*
X168993880Y-112309151D01*
X169103113Y-111760000D01*
X169048835Y-111487122D01*
X171372581Y-111487122D01*
X171401336Y-112017440D01*
X171548958Y-112373831D01*
X171784725Y-112435669D01*
X172540395Y-111680000D01*
X172899605Y-111680000D01*
X173655275Y-112435669D01*
X173891042Y-112373831D01*
X173980754Y-112119026D01*
X176192642Y-112119026D01*
X176195291Y-112134791D01*
X176449268Y-112662036D01*
X176885680Y-113051954D01*
X177438087Y-113245184D01*
X177673000Y-113100924D01*
X177673000Y-111887000D01*
X177927000Y-111887000D01*
X177927000Y-113100924D01*
X178161913Y-113245184D01*
X178714320Y-113051954D01*
X179150732Y-112662036D01*
X179404709Y-112134791D01*
X179407358Y-112119026D01*
X179286217Y-111887000D01*
X177927000Y-111887000D01*
X177673000Y-111887000D01*
X176313783Y-111887000D01*
X176192642Y-112119026D01*
X173980754Y-112119026D01*
X174067419Y-111872878D01*
X174038664Y-111342560D01*
X173891042Y-110986169D01*
X173655275Y-110924331D01*
X172899605Y-111680000D01*
X172540395Y-111680000D01*
X171784725Y-110924331D01*
X171548958Y-110986169D01*
X171372581Y-111487122D01*
X169048835Y-111487122D01*
X168993880Y-111210849D01*
X168682811Y-110745302D01*
X168681948Y-110744725D01*
X171964331Y-110744725D01*
X172720000Y-111500395D01*
X173475669Y-110744725D01*
X173413831Y-110508958D01*
X172912878Y-110332581D01*
X172382560Y-110361336D01*
X172026169Y-110508958D01*
X171964331Y-110744725D01*
X168681948Y-110744725D01*
X168300725Y-110490000D01*
X168682811Y-110234698D01*
X168769473Y-110105000D01*
X176438874Y-110105000D01*
X176555585Y-110279670D01*
X176865069Y-110486461D01*
X176449268Y-110857964D01*
X176195291Y-111385209D01*
X176192642Y-111400974D01*
X176313783Y-111633000D01*
X177673000Y-111633000D01*
X177673000Y-111613000D01*
X177927000Y-111613000D01*
X177927000Y-111633000D01*
X179286217Y-111633000D01*
X179407358Y-111400974D01*
X179404709Y-111385209D01*
X179150732Y-110857964D01*
X178734931Y-110486461D01*
X179044415Y-110279670D01*
X179369271Y-109793489D01*
X179483345Y-109220000D01*
X179369271Y-108646511D01*
X179044415Y-108160330D01*
X179030087Y-108150757D01*
X179051317Y-108146762D01*
X179267441Y-108007690D01*
X179412431Y-107795490D01*
X179463440Y-107543600D01*
X179463440Y-105816400D01*
X179419162Y-105581083D01*
X179280090Y-105364959D01*
X179067890Y-105219969D01*
X178816000Y-105168960D01*
X176784000Y-105168960D01*
X176548683Y-105213238D01*
X176332559Y-105352310D01*
X176187569Y-105564510D01*
X176136560Y-105816400D01*
X176136560Y-107543600D01*
X176180838Y-107778917D01*
X176319910Y-107995041D01*
X176532110Y-108140031D01*
X176573439Y-108148400D01*
X176555585Y-108160330D01*
X176438874Y-108335000D01*
X169776579Y-108335000D01*
X170805787Y-107305792D01*
X170805790Y-107305790D01*
X170997633Y-107018675D01*
X171065000Y-106680000D01*
X171065000Y-105980000D01*
X171372560Y-105980000D01*
X171372560Y-107380000D01*
X171416838Y-107615317D01*
X171555910Y-107831441D01*
X171768110Y-107976431D01*
X172020000Y-108027440D01*
X173420000Y-108027440D01*
X173655317Y-107983162D01*
X173871441Y-107844090D01*
X174016431Y-107631890D01*
X174067440Y-107380000D01*
X174067440Y-105980000D01*
X174023162Y-105744683D01*
X173884090Y-105528559D01*
X173671890Y-105383569D01*
X173420000Y-105332560D01*
X172020000Y-105332560D01*
X171784683Y-105376838D01*
X171568559Y-105515910D01*
X171423569Y-105728110D01*
X171372560Y-105980000D01*
X171065000Y-105980000D01*
X171065000Y-104506580D01*
X172353827Y-103217752D01*
X172393453Y-103234206D01*
X173043694Y-103234774D01*
X173644655Y-102986462D01*
X174104846Y-102527073D01*
X174354206Y-101926547D01*
X174354774Y-101276306D01*
X174106462Y-100675345D01*
X173647073Y-100215154D01*
X173046547Y-99965794D01*
X172396306Y-99965226D01*
X171795345Y-100213538D01*
X171335154Y-100672927D01*
X171085794Y-101273453D01*
X171085226Y-101923694D01*
X171102623Y-101965798D01*
X169554210Y-103514210D01*
X169362367Y-103801325D01*
X169362367Y-103801326D01*
X169294999Y-104140000D01*
X169295000Y-104140005D01*
X169295000Y-106313421D01*
X169074130Y-106534291D01*
X168993880Y-106130849D01*
X168682811Y-105665302D01*
X168217264Y-105354233D01*
X167668113Y-105245000D01*
X167611887Y-105245000D01*
X167062736Y-105354233D01*
X166597189Y-105665302D01*
X166286120Y-106130849D01*
X166176887Y-106680000D01*
X166286120Y-107229151D01*
X166597189Y-107694698D01*
X166979275Y-107950000D01*
X166597189Y-108205302D01*
X166286120Y-108670849D01*
X166205870Y-109074291D01*
X165985000Y-108853420D01*
X165985000Y-103002847D01*
X166024655Y-102986462D01*
X166484846Y-102527073D01*
X166734206Y-101926547D01*
X166734774Y-101276306D01*
X166486462Y-100675345D01*
X166027073Y-100215154D01*
X165426547Y-99965794D01*
X164776306Y-99965226D01*
X164175345Y-100213538D01*
X163829801Y-100558480D01*
X163487073Y-100215154D01*
X162886547Y-99965794D01*
X162236306Y-99965226D01*
X161635345Y-100213538D01*
X161175154Y-100672927D01*
X160925794Y-101273453D01*
X160925226Y-101923694D01*
X161173538Y-102524655D01*
X161632927Y-102984846D01*
X162233453Y-103234206D01*
X162883694Y-103234774D01*
X163484655Y-102986462D01*
X163830199Y-102641520D01*
X164172927Y-102984846D01*
X164215000Y-103002316D01*
X164215000Y-109219995D01*
X164214999Y-109220000D01*
X164270032Y-109496661D01*
X164282367Y-109558675D01*
X164423002Y-109769151D01*
X164474210Y-109845790D01*
X166211983Y-111583562D01*
X166176887Y-111760000D01*
X166286120Y-112309151D01*
X166597189Y-112774698D01*
X166979275Y-113030000D01*
X166597189Y-113285302D01*
X166510527Y-113415000D01*
X165100000Y-113415000D01*
X164761325Y-113482367D01*
X164474210Y-113674210D01*
X164474208Y-113674213D01*
X161934210Y-116214210D01*
X161742367Y-116501325D01*
X161742367Y-116501326D01*
X161674999Y-116840000D01*
X161675000Y-116840005D01*
X161675000Y-123098874D01*
X161500330Y-123215585D01*
X161293539Y-123525069D01*
X160922036Y-123109268D01*
X160394791Y-122855291D01*
X160379026Y-122852642D01*
X160147000Y-122973783D01*
X159893000Y-122973783D01*
X159660974Y-122852642D01*
X159645209Y-122855291D01*
X159117964Y-123109268D01*
X158728046Y-123545680D01*
X158534816Y-124098087D01*
X154535316Y-124098087D01*
X154535370Y-124037185D01*
X154211020Y-123252200D01*
X153610959Y-122651091D01*
X152826541Y-122325372D01*
X151977185Y-122324630D01*
X151192200Y-122648980D01*
X150591091Y-123249041D01*
X150265372Y-124033459D01*
X150264630Y-124882815D01*
X148030000Y-124882815D01*
X148030000Y-120315275D01*
X159344331Y-120315275D01*
X159406169Y-120551042D01*
X159907122Y-120727419D01*
X160437440Y-120698664D01*
X160793831Y-120551042D01*
X160855669Y-120315275D01*
X160100000Y-119559605D01*
X159344331Y-120315275D01*
X148030000Y-120315275D01*
X148030000Y-119187122D01*
X158752581Y-119187122D01*
X158781336Y-119717440D01*
X158928958Y-120073831D01*
X159164725Y-120135669D01*
X159920395Y-119380000D01*
X160279605Y-119380000D01*
X161035275Y-120135669D01*
X161271042Y-120073831D01*
X161447419Y-119572878D01*
X161418664Y-119042560D01*
X161271042Y-118686169D01*
X161035275Y-118624331D01*
X160279605Y-119380000D01*
X159920395Y-119380000D01*
X159164725Y-118624331D01*
X158928958Y-118686169D01*
X158752581Y-119187122D01*
X148030000Y-119187122D01*
X148030000Y-118444725D01*
X159344331Y-118444725D01*
X160100000Y-119200395D01*
X160855669Y-118444725D01*
X160793831Y-118208958D01*
X160292878Y-118032581D01*
X159762560Y-118061336D01*
X159406169Y-118208958D01*
X159344331Y-118444725D01*
X148030000Y-118444725D01*
X148030000Y-115280213D01*
X154139392Y-115280213D01*
X154208857Y-115522397D01*
X154732302Y-115709144D01*
X155287368Y-115681362D01*
X155671143Y-115522397D01*
X155740608Y-115280213D01*
X154940000Y-114479605D01*
X154139392Y-115280213D01*
X148030000Y-115280213D01*
X148030000Y-114092302D01*
X153530856Y-114092302D01*
X153558638Y-114647368D01*
X153717603Y-115031143D01*
X153959787Y-115100608D01*
X154760395Y-114300000D01*
X155119605Y-114300000D01*
X155920213Y-115100608D01*
X156162397Y-115031143D01*
X156298718Y-114649039D01*
X158628096Y-114649039D01*
X158788959Y-115037423D01*
X159164866Y-115452389D01*
X159670959Y-115691914D01*
X159893000Y-115570629D01*
X159893000Y-114427000D01*
X160147000Y-114427000D01*
X160147000Y-115570629D01*
X160369041Y-115691914D01*
X160875134Y-115452389D01*
X161251041Y-115037423D01*
X161411904Y-114649039D01*
X161289915Y-114427000D01*
X160147000Y-114427000D01*
X159893000Y-114427000D01*
X158750085Y-114427000D01*
X158628096Y-114649039D01*
X156298718Y-114649039D01*
X156349144Y-114507698D01*
X156321362Y-113952632D01*
X156162397Y-113568857D01*
X155920213Y-113499392D01*
X155119605Y-114300000D01*
X154760395Y-114300000D01*
X153959787Y-113499392D01*
X153717603Y-113568857D01*
X153530856Y-114092302D01*
X148030000Y-114092302D01*
X148030000Y-101923694D01*
X153305226Y-101923694D01*
X153553538Y-102524655D01*
X154012927Y-102984846D01*
X154055000Y-103002316D01*
X154055000Y-104139995D01*
X154054999Y-104140000D01*
X154111190Y-104422484D01*
X154122367Y-104478675D01*
X154314210Y-104765790D01*
X156854208Y-107305787D01*
X156854210Y-107305790D01*
X157141325Y-107497633D01*
X157480000Y-107565000D01*
X158890527Y-107565000D01*
X158977189Y-107694698D01*
X159135000Y-107800144D01*
X159135000Y-108099856D01*
X158977189Y-108205302D01*
X158666120Y-108670849D01*
X158556887Y-109220000D01*
X158666120Y-109769151D01*
X158977189Y-110234698D01*
X159359275Y-110490000D01*
X158977189Y-110745302D01*
X158890527Y-110875000D01*
X156030478Y-110875000D01*
X155732370Y-110576371D01*
X155524488Y-110490051D01*
X155730303Y-110405010D01*
X156123629Y-110012370D01*
X156336757Y-109499100D01*
X156337242Y-108943339D01*
X156125010Y-108429697D01*
X155732370Y-108036371D01*
X155219100Y-107823243D01*
X154663339Y-107822758D01*
X154149697Y-108034990D01*
X153756371Y-108427630D01*
X153543243Y-108940900D01*
X153542758Y-109496661D01*
X153754990Y-110010303D01*
X154147630Y-110403629D01*
X154355512Y-110489949D01*
X154149697Y-110574990D01*
X153756371Y-110967630D01*
X153543243Y-111480900D01*
X153542758Y-112036661D01*
X153754990Y-112550303D01*
X154147630Y-112943629D01*
X154339727Y-113023395D01*
X154208857Y-113077603D01*
X154139392Y-113319787D01*
X154940000Y-114120395D01*
X155740608Y-113319787D01*
X155671143Y-113077603D01*
X155530682Y-113027491D01*
X155730303Y-112945010D01*
X156030837Y-112645000D01*
X158890527Y-112645000D01*
X158977189Y-112774698D01*
X159381703Y-113044986D01*
X159164866Y-113147611D01*
X158788959Y-113562577D01*
X158628096Y-113950961D01*
X158750085Y-114173000D01*
X159893000Y-114173000D01*
X159893000Y-114153000D01*
X160147000Y-114153000D01*
X160147000Y-114173000D01*
X161289915Y-114173000D01*
X161411904Y-113950961D01*
X161251041Y-113562577D01*
X160875134Y-113147611D01*
X160658297Y-113044986D01*
X161062811Y-112774698D01*
X161373880Y-112309151D01*
X161483113Y-111760000D01*
X161373880Y-111210849D01*
X161062811Y-110745302D01*
X160680725Y-110490000D01*
X161062811Y-110234698D01*
X161373880Y-109769151D01*
X161483113Y-109220000D01*
X161373880Y-108670849D01*
X161062811Y-108205302D01*
X160905000Y-108099856D01*
X160905000Y-107800144D01*
X161062811Y-107694698D01*
X161373880Y-107229151D01*
X161483113Y-106680000D01*
X161373880Y-106130849D01*
X161062811Y-105665302D01*
X160597264Y-105354233D01*
X160048113Y-105245000D01*
X159991887Y-105245000D01*
X159442736Y-105354233D01*
X158977189Y-105665302D01*
X158890527Y-105795000D01*
X157846579Y-105795000D01*
X155825000Y-103773420D01*
X155825000Y-103002847D01*
X155864655Y-102986462D01*
X156324846Y-102527073D01*
X156574206Y-101926547D01*
X156574774Y-101276306D01*
X156326462Y-100675345D01*
X155867073Y-100215154D01*
X155266547Y-99965794D01*
X154616306Y-99965226D01*
X154015345Y-100213538D01*
X153555154Y-100672927D01*
X153305794Y-101273453D01*
X153305226Y-101923694D01*
X148030000Y-101923694D01*
X148030000Y-97455275D01*
X161884331Y-97455275D01*
X161946169Y-97691042D01*
X162447122Y-97867419D01*
X162977440Y-97838664D01*
X163333831Y-97691042D01*
X163395669Y-97455275D01*
X162640000Y-96699605D01*
X161884331Y-97455275D01*
X148030000Y-97455275D01*
X148030000Y-96327122D01*
X161292581Y-96327122D01*
X161321336Y-96857440D01*
X161468958Y-97213831D01*
X161704725Y-97275669D01*
X162460395Y-96520000D01*
X162819605Y-96520000D01*
X163575275Y-97275669D01*
X163811042Y-97213831D01*
X163987419Y-96712878D01*
X163958664Y-96182560D01*
X163811042Y-95826169D01*
X163787522Y-95820000D01*
X166292560Y-95820000D01*
X166292560Y-97220000D01*
X166336838Y-97455317D01*
X166475910Y-97671441D01*
X166688110Y-97816431D01*
X166940000Y-97867440D01*
X168340000Y-97867440D01*
X168575317Y-97823162D01*
X168791441Y-97684090D01*
X168936431Y-97471890D01*
X168987440Y-97220000D01*
X168987440Y-95820000D01*
X168943162Y-95584683D01*
X168804090Y-95368559D01*
X168591890Y-95223569D01*
X168340000Y-95172560D01*
X166940000Y-95172560D01*
X166704683Y-95216838D01*
X166488559Y-95355910D01*
X166343569Y-95568110D01*
X166292560Y-95820000D01*
X163787522Y-95820000D01*
X163575275Y-95764331D01*
X162819605Y-96520000D01*
X162460395Y-96520000D01*
X161704725Y-95764331D01*
X161468958Y-95826169D01*
X161292581Y-96327122D01*
X148030000Y-96327122D01*
X148030000Y-94402815D01*
X150264630Y-94402815D01*
X150588980Y-95187800D01*
X151189041Y-95788909D01*
X151973459Y-96114628D01*
X152822815Y-96115370D01*
X153607800Y-95791020D01*
X153814455Y-95584725D01*
X161884331Y-95584725D01*
X162640000Y-96340395D01*
X163395669Y-95584725D01*
X163333831Y-95348958D01*
X162832878Y-95172581D01*
X162302560Y-95201336D01*
X161946169Y-95348958D01*
X161884331Y-95584725D01*
X153814455Y-95584725D01*
X154208909Y-95190959D01*
X154534628Y-94406541D01*
X154534631Y-94402815D01*
X175664630Y-94402815D01*
X175988980Y-95187800D01*
X176589041Y-95788909D01*
X177373459Y-96114628D01*
X178222815Y-96115370D01*
X179007800Y-95791020D01*
X179608909Y-95190959D01*
X179934628Y-94406541D01*
X179935370Y-93557185D01*
X179611020Y-92772200D01*
X179010959Y-92171091D01*
X178226541Y-91845372D01*
X177377185Y-91844630D01*
X176592200Y-92168980D01*
X175991091Y-92769041D01*
X175665372Y-93553459D01*
X175664630Y-94402815D01*
X154534631Y-94402815D01*
X154535370Y-93557185D01*
X154211020Y-92772200D01*
X153610959Y-92171091D01*
X152826541Y-91845372D01*
X151977185Y-91844630D01*
X151192200Y-92168980D01*
X150591091Y-92769041D01*
X150265372Y-93553459D01*
X150264630Y-94402815D01*
X148030000Y-94402815D01*
X148030000Y-89610000D01*
X182170000Y-89610000D01*
X182170000Y-128830000D01*
M02*
