(kicad_pcb (version 4) (host pcbnew 4.0.2+dfsg1-stable)

  (general
    (links 57)
    (no_connects 0)
    (area 22.491699 72.656699 255.638302 131.178302)
    (thickness 1.6)
    (drawings 13)
    (tracks 213)
    (zones 0)
    (modules 5)
    (nets 36)
  )

  (page A4)
  (title_block
    (date "1 jul 2009")
    (rev 1)
  )

  (layers
    (0 Component signal)
    (31 Copper signal)
    (32 B.Adhes user)
    (33 F.Adhes user)
    (34 B.Paste user)
    (35 F.Paste user)
    (36 B.SilkS user)
    (37 F.SilkS user)
    (38 B.Mask user)
    (39 F.Mask user)
    (40 Dwgs.User user)
    (41 Cmts.User user)
    (42 Eco1.User user)
    (43 Eco2.User user)
    (44 Edge.Cuts user)
    (45 Margin user)
    (46 B.CrtYd user)
    (47 F.CrtYd user)
    (48 B.Fab user)
    (49 F.Fab user)
  )

  (setup
    (last_trace_width 0.4318)
    (trace_clearance 0.1524)
    (zone_clearance 0.508)
    (zone_45_only no)
    (trace_min 0.2)
    (segment_width 0.381)
    (edge_width 0.381)
    (via_size 1.143)
    (via_drill 0.635)
    (via_min_size 0.4)
    (via_min_drill 0.3)
    (uvia_size 0.508)
    (uvia_drill 0.2032)
    (uvias_allowed no)
    (uvia_min_size 0.2)
    (uvia_min_drill 0.1)
    (pcb_text_width 0.3048)
    (pcb_text_size 1.524 2.032)
    (mod_edge_width 0.381)
    (mod_text_size 1.524 1.524)
    (mod_text_width 0.3048)
    (pad_size 1.524 1.524)
    (pad_drill 0.8128)
    (pad_to_mask_clearance 0.2)
    (aux_axis_origin 0 0)
    (visible_elements FFFFFF7F)
    (pcbplotparams
      (layerselection 0x00030_80000001)
      (usegerberextensions false)
      (excludeedgelayer true)
      (linewidth 0.100000)
      (plotframeref false)
      (viasonmask false)
      (mode 1)
      (useauxorigin false)
      (hpglpennumber 1)
      (hpglpenspeed 20)
      (hpglpendiameter 15)
      (hpglpenoverlay 2)
      (psnegative false)
      (psa4output false)
      (plotreference true)
      (plotvalue true)
      (plotinvisibletext false)
      (padsonsilk false)
      (subtractmaskfromsilk false)
      (outputformat 1)
      (mirror false)
      (drillshape 1)
      (scaleselection 1)
      (outputdirectory ""))
  )

  (net 0 "")
  (net 1 /PB1)
  (net 2 /PB2)
  (net 3 /PB3)
  (net 4 /PB4)
  (net 5 /PB5)
  (net 6 /PB6)
  (net 7 /PB7)
  (net 8 /PB8)
  (net 9 /PB9)
  (net 10 /PB10)
  (net 11 /PB11)
  (net 12 /PB12)
  (net 13 /PB13)
  (net 14 /PB14)
  (net 15 /PB15)
  (net 16 /PB16)
  (net 17 /PB17)
  (net 18 N-000001)
  (net 19 /PA1)
  (net 20 /PA2)
  (net 21 /PA3)
  (net 22 /PA4)
  (net 23 /PA5)
  (net 24 /PA6)
  (net 25 /PA7)
  (net 26 /PA8)
  (net 27 /PA9)
  (net 28 /PA10)
  (net 29 /PA11)
  (net 30 /PA12)
  (net 31 /PA13)
  (net 32 /PA14)
  (net 33 /PA15)
  (net 34 /PA16)
  (net 35 /PA17)

  (net_class Default "This is the default net class."
    (clearance 0.1524)
    (trace_width 0.4318)
    (via_dia 1.143)
    (via_drill 0.635)
    (uvia_dia 0.508)
    (uvia_drill 0.2032)
    (add_net /PA1)
    (add_net /PA10)
    (add_net /PA11)
    (add_net /PA12)
    (add_net /PA13)
    (add_net /PA14)
    (add_net /PA15)
    (add_net /PA16)
    (add_net /PA17)
    (add_net /PA2)
    (add_net /PA3)
    (add_net /PA4)
    (add_net /PA5)
    (add_net /PA6)
    (add_net /PA7)
    (add_net /PA8)
    (add_net /PA9)
    (add_net /PB1)
    (add_net /PB10)
    (add_net /PB11)
    (add_net /PB12)
    (add_net /PB13)
    (add_net /PB14)
    (add_net /PB15)
    (add_net /PB16)
    (add_net /PB17)
    (add_net /PB2)
    (add_net /PB3)
    (add_net /PB4)
    (add_net /PB5)
    (add_net /PB6)
    (add_net /PB7)
    (add_net /PB8)
    (add_net /PB9)
    (add_net N-000001)
  )

  (module DB25FD (layer Component) (tedit 200000) (tstamp 4A49CF1C)
    (at 187.325 87.63 180)
    (descr "Connecteur DB25 femelle droit")
    (tags "CONN DB25")
    (path /4A49CF1C)
    (fp_text reference J2 (at -15.24 -5.08 360) (layer F.SilkS)
      (effects (font (thickness 0.3048)))
    )
    (fp_text value DB25 (at 12.7 -5.08 360) (layer F.SilkS)
      (effects (font (thickness 0.3048)))
    )
    (fp_line (start -25.654 -3.175) (end -25.654 -3.175) (layer F.SilkS) (width 0.3048))
    (fp_line (start -25.654 -3.175) (end -25.654 3.175) (layer F.SilkS) (width 0.3048))
    (fp_line (start -25.654 3.175) (end 25.781 3.175) (layer F.SilkS) (width 0.3048))
    (fp_line (start 25.781 3.175) (end 25.781 -3.175) (layer F.SilkS) (width 0.3048))
    (fp_line (start 25.781 -3.175) (end -25.527 -3.175) (layer F.SilkS) (width 0.3048))
    (fp_line (start -25.527 -3.175) (end -25.654 -3.175) (layer F.SilkS) (width 0.3048))
    (pad 0 thru_hole circle (at -23.495 0 180) (size 3.81 3.81) (drill 3.048) (layers *.Cu *.Mask F.SilkS))
    (pad 0 thru_hole circle (at 23.495 0 180) (size 3.81 3.81) (drill 3.048) (layers *.Cu *.Mask F.SilkS))
    (pad 1 thru_hole rect (at 16.637 -1.397 180) (size 1.524 1.524) (drill 1.016) (layers *.Cu *.Mask F.SilkS)
      (net 1 /PB1))
    (pad 2 thru_hole circle (at 13.843 -1.397 180) (size 1.524 1.524) (drill 1.016) (layers *.Cu *.Mask F.SilkS)
      (net 2 /PB2))
    (pad 3 thru_hole circle (at 11.049 -1.397 180) (size 1.524 1.524) (drill 1.016) (layers *.Cu *.Mask F.SilkS)
      (net 3 /PB3))
    (pad 4 thru_hole circle (at 8.255 -1.397 180) (size 1.524 1.524) (drill 1.016) (layers *.Cu *.Mask F.SilkS)
      (net 4 /PB4))
    (pad 5 thru_hole circle (at 5.461 -1.397 180) (size 1.524 1.524) (drill 1.016) (layers *.Cu *.Mask F.SilkS)
      (net 5 /PB5))
    (pad 6 thru_hole circle (at 2.794 -1.397 180) (size 1.524 1.524) (drill 1.016) (layers *.Cu *.Mask F.SilkS)
      (net 6 /PB6))
    (pad 7 thru_hole circle (at 0 -1.397 180) (size 1.524 1.524) (drill 1.016) (layers *.Cu *.Mask F.SilkS)
      (net 7 /PB7))
    (pad 8 thru_hole circle (at -2.794 -1.397 180) (size 1.524 1.524) (drill 1.016) (layers *.Cu *.Mask F.SilkS)
      (net 8 /PB8))
    (pad 9 thru_hole circle (at -5.588 -1.397 180) (size 1.524 1.524) (drill 1.016) (layers *.Cu *.Mask F.SilkS)
      (net 9 /PB9))
    (pad 10 thru_hole circle (at -8.382 -1.397 180) (size 1.524 1.524) (drill 1.016) (layers *.Cu *.Mask F.SilkS)
      (net 10 /PB10))
    (pad 11 thru_hole circle (at -11.049 -1.397 180) (size 1.524 1.524) (drill 1.016) (layers *.Cu *.Mask F.SilkS)
      (net 11 /PB11))
    (pad 12 thru_hole circle (at -13.843 -1.397 180) (size 1.524 1.524) (drill 1.016) (layers *.Cu *.Mask F.SilkS)
      (net 12 /PB12))
    (pad 13 thru_hole circle (at -16.637 -1.397 180) (size 1.524 1.524) (drill 1.016) (layers *.Cu *.Mask F.SilkS)
      (net 13 /PB13))
    (pad 14 thru_hole circle (at 15.24 1.397 180) (size 1.524 1.524) (drill 1.016) (layers *.Cu *.Mask F.SilkS)
      (net 14 /PB14))
    (pad 15 thru_hole circle (at 12.446 1.397 180) (size 1.524 1.524) (drill 1.016) (layers *.Cu *.Mask F.SilkS)
      (net 15 /PB15))
    (pad 16 thru_hole circle (at 9.652 1.397 180) (size 1.524 1.524) (drill 1.016) (layers *.Cu *.Mask F.SilkS)
      (net 16 /PB16))
    (pad 17 thru_hole circle (at 6.985 1.397 180) (size 1.524 1.524) (drill 1.016) (layers *.Cu *.Mask F.SilkS)
      (net 17 /PB17))
    (pad 18 thru_hole circle (at 4.191 1.397 180) (size 1.524 1.524) (drill 1.016) (layers *.Cu *.Mask F.SilkS)
      (net 18 N-000001))
    (pad 19 thru_hole circle (at 1.397 1.397 180) (size 1.524 1.524) (drill 1.016) (layers *.Cu *.Mask F.SilkS)
      (net 18 N-000001))
    (pad 20 thru_hole circle (at -1.397 1.397 180) (size 1.524 1.524) (drill 1.016) (layers *.Cu *.Mask F.SilkS)
      (net 18 N-000001))
    (pad 21 thru_hole circle (at -4.191 1.397 180) (size 1.524 1.524) (drill 1.016) (layers *.Cu *.Mask F.SilkS)
      (net 18 N-000001))
    (pad 22 thru_hole circle (at -6.858 1.397 180) (size 1.524 1.524) (drill 1.016) (layers *.Cu *.Mask F.SilkS)
      (net 18 N-000001))
    (pad 23 thru_hole circle (at -9.652 1.397 180) (size 1.524 1.524) (drill 1.016) (layers *.Cu *.Mask F.SilkS)
      (net 18 N-000001))
    (pad 24 thru_hole circle (at -12.446 1.397 180) (size 1.524 1.524) (drill 1.016) (layers *.Cu *.Mask F.SilkS)
      (net 18 N-000001))
    (pad 25 thru_hole circle (at -15.24 1.397 180) (size 1.524 1.524) (drill 1.016) (layers *.Cu *.Mask F.SilkS)
      (net 18 N-000001))
    (model conn_DBxx/db25_female.wrl
      (at (xyz 0 0 0))
      (scale (xyz 1 1 1))
      (rotate (xyz 0 0 0))
    )
  )

  (module DB25FD (layer Component) (tedit 200000) (tstamp 4A49CEF5)
    (at 91.44 87.63 180)
    (descr "Connecteur DB25 femelle droit")
    (tags "CONN DB25")
    (path /4A49CEF5)
    (fp_text reference J1 (at -15.24 -5.08 360) (layer F.SilkS)
      (effects (font (thickness 0.3048)))
    )
    (fp_text value DB25 (at 12.7 -5.08 360) (layer F.SilkS)
      (effects (font (thickness 0.3048)))
    )
    (fp_line (start -25.654 -3.175) (end -25.654 -3.175) (layer F.SilkS) (width 0.3048))
    (fp_line (start -25.654 -3.175) (end -25.654 3.175) (layer F.SilkS) (width 0.3048))
    (fp_line (start -25.654 3.175) (end 25.781 3.175) (layer F.SilkS) (width 0.3048))
    (fp_line (start 25.781 3.175) (end 25.781 -3.175) (layer F.SilkS) (width 0.3048))
    (fp_line (start 25.781 -3.175) (end -25.527 -3.175) (layer F.SilkS) (width 0.3048))
    (fp_line (start -25.527 -3.175) (end -25.654 -3.175) (layer F.SilkS) (width 0.3048))
    (pad 0 thru_hole circle (at -23.495 0 180) (size 3.81 3.81) (drill 3.048) (layers *.Cu *.Mask F.SilkS))
    (pad 0 thru_hole circle (at 23.495 0 180) (size 3.81 3.81) (drill 3.048) (layers *.Cu *.Mask F.SilkS))
    (pad 1 thru_hole rect (at 16.637 -1.397 180) (size 1.524 1.524) (drill 1.016) (layers *.Cu *.Mask F.SilkS)
      (net 19 /PA1))
    (pad 2 thru_hole circle (at 13.843 -1.397 180) (size 1.524 1.524) (drill 1.016) (layers *.Cu *.Mask F.SilkS)
      (net 20 /PA2))
    (pad 3 thru_hole circle (at 11.049 -1.397 180) (size 1.524 1.524) (drill 1.016) (layers *.Cu *.Mask F.SilkS)
      (net 21 /PA3))
    (pad 4 thru_hole circle (at 8.255 -1.397 180) (size 1.524 1.524) (drill 1.016) (layers *.Cu *.Mask F.SilkS)
      (net 22 /PA4))
    (pad 5 thru_hole circle (at 5.461 -1.397 180) (size 1.524 1.524) (drill 1.016) (layers *.Cu *.Mask F.SilkS)
      (net 23 /PA5))
    (pad 6 thru_hole circle (at 2.794 -1.397 180) (size 1.524 1.524) (drill 1.016) (layers *.Cu *.Mask F.SilkS)
      (net 24 /PA6))
    (pad 7 thru_hole circle (at 0 -1.397 180) (size 1.524 1.524) (drill 1.016) (layers *.Cu *.Mask F.SilkS)
      (net 25 /PA7))
    (pad 8 thru_hole circle (at -2.794 -1.397 180) (size 1.524 1.524) (drill 1.016) (layers *.Cu *.Mask F.SilkS)
      (net 26 /PA8))
    (pad 9 thru_hole circle (at -5.588 -1.397 180) (size 1.524 1.524) (drill 1.016) (layers *.Cu *.Mask F.SilkS)
      (net 27 /PA9))
    (pad 10 thru_hole circle (at -8.382 -1.397 180) (size 1.524 1.524) (drill 1.016) (layers *.Cu *.Mask F.SilkS)
      (net 28 /PA10))
    (pad 11 thru_hole circle (at -11.049 -1.397 180) (size 1.524 1.524) (drill 1.016) (layers *.Cu *.Mask F.SilkS)
      (net 29 /PA11))
    (pad 12 thru_hole circle (at -13.843 -1.397 180) (size 1.524 1.524) (drill 1.016) (layers *.Cu *.Mask F.SilkS)
      (net 30 /PA12))
    (pad 13 thru_hole circle (at -16.637 -1.397 180) (size 1.524 1.524) (drill 1.016) (layers *.Cu *.Mask F.SilkS)
      (net 31 /PA13))
    (pad 14 thru_hole circle (at 15.24 1.397 180) (size 1.524 1.524) (drill 1.016) (layers *.Cu *.Mask F.SilkS)
      (net 32 /PA14))
    (pad 15 thru_hole circle (at 12.446 1.397 180) (size 1.524 1.524) (drill 1.016) (layers *.Cu *.Mask F.SilkS)
      (net 33 /PA15))
    (pad 16 thru_hole circle (at 9.652 1.397 180) (size 1.524 1.524) (drill 1.016) (layers *.Cu *.Mask F.SilkS)
      (net 34 /PA16))
    (pad 17 thru_hole circle (at 6.985 1.397 180) (size 1.524 1.524) (drill 1.016) (layers *.Cu *.Mask F.SilkS)
      (net 35 /PA17))
    (pad 18 thru_hole circle (at 4.191 1.397 180) (size 1.524 1.524) (drill 1.016) (layers *.Cu *.Mask F.SilkS)
      (net 18 N-000001))
    (pad 19 thru_hole circle (at 1.397 1.397 180) (size 1.524 1.524) (drill 1.016) (layers *.Cu *.Mask F.SilkS)
      (net 18 N-000001))
    (pad 20 thru_hole circle (at -1.397 1.397 180) (size 1.524 1.524) (drill 1.016) (layers *.Cu *.Mask F.SilkS)
      (net 18 N-000001))
    (pad 21 thru_hole circle (at -4.191 1.397 180) (size 1.524 1.524) (drill 1.016) (layers *.Cu *.Mask F.SilkS)
      (net 18 N-000001))
    (pad 22 thru_hole circle (at -6.858 1.397 180) (size 1.524 1.524) (drill 1.016) (layers *.Cu *.Mask F.SilkS)
      (net 18 N-000001))
    (pad 23 thru_hole circle (at -9.652 1.397 180) (size 1.524 1.524) (drill 1.016) (layers *.Cu *.Mask F.SilkS)
      (net 18 N-000001))
    (pad 24 thru_hole circle (at -12.446 1.397 180) (size 1.524 1.524) (drill 1.016) (layers *.Cu *.Mask F.SilkS)
      (net 18 N-000001))
    (pad 25 thru_hole circle (at -15.24 1.397 180) (size 1.524 1.524) (drill 1.016) (layers *.Cu *.Mask F.SilkS)
      (net 18 N-000001))
    (model conn_DBxx/db25_female.wrl
      (at (xyz 0 0 0))
      (scale (xyz 1 1 1))
      (rotate (xyz 0 0 0))
    )
  )

  (module ST17 (layer Component) (tedit 4A4B3674) (tstamp 4A49CF9C)
    (at 164.465 109.22)
    (path /4A49CF9C)
    (fp_text reference P3 (at 3.81 -11.43) (layer F.SilkS)
      (effects (font (thickness 0.3048)))
    )
    (fp_text value CONN_17 (at 3.81 -8.89) (layer F.SilkS)
      (effects (font (thickness 0.3048)))
    )
    (fp_line (start -2.5146 10.16) (end 82.9818 10.16) (layer F.SilkS) (width 0.381))
    (fp_line (start 82.9818 5.08) (end -2.5146 5.08) (layer F.SilkS) (width 0.381))
    (fp_line (start 82.9818 -6.35) (end -2.54 -6.35) (layer F.SilkS) (width 0.381))
    (fp_line (start 12.573 -6.35) (end 12.573 10.16) (layer F.SilkS) (width 0.381))
    (fp_line (start 17.6022 -6.35) (end 17.6022 10.16) (layer F.SilkS) (width 0.381))
    (fp_line (start 22.6314 -6.35) (end 22.6314 10.16) (layer F.SilkS) (width 0.381))
    (fp_line (start 27.6606 -6.35) (end 27.6606 10.16) (layer F.SilkS) (width 0.381))
    (fp_line (start 32.6898 -6.35) (end 32.6898 10.16) (layer F.SilkS) (width 0.381))
    (fp_line (start 37.719 -6.35) (end 37.719 10.16) (layer F.SilkS) (width 0.381))
    (fp_line (start 42.7482 -6.35) (end 42.7482 10.16) (layer F.SilkS) (width 0.381))
    (fp_line (start 47.7774 -6.35) (end 47.7774 10.16) (layer F.SilkS) (width 0.381))
    (fp_line (start 52.8066 -6.35) (end 52.8066 10.16) (layer F.SilkS) (width 0.381))
    (fp_line (start 57.8358 -6.35) (end 57.8358 10.16) (layer F.SilkS) (width 0.381))
    (fp_line (start 62.865 -6.35) (end 62.865 10.16) (layer F.SilkS) (width 0.381))
    (fp_line (start 67.8942 -6.35) (end 67.8942 10.16) (layer F.SilkS) (width 0.381))
    (fp_line (start 72.9234 -6.35) (end 72.9234 10.16) (layer F.SilkS) (width 0.381))
    (fp_line (start 77.9526 -6.35) (end 77.9526 10.16) (layer F.SilkS) (width 0.381))
    (fp_line (start 82.9818 -6.35) (end 82.9818 10.16) (layer F.SilkS) (width 0.381))
    (fp_line (start 7.5184 -6.35) (end 7.5184 10.16) (layer F.SilkS) (width 0.381))
    (fp_line (start 2.4892 -6.35) (end 2.4892 10.16) (layer F.SilkS) (width 0.381))
    (fp_line (start -2.54 -6.35) (end -2.54 10.16) (layer F.SilkS) (width 0.381))
    (fp_text user 17 (at 80.5942 7.6454) (layer F.SilkS)
      (effects (font (thickness 0.3048)))
    )
    (fp_text user 16 (at 75.565 7.7216) (layer F.SilkS)
      (effects (font (thickness 0.3048)))
    )
    (fp_text user 15 (at 70.4596 7.7724) (layer F.SilkS)
      (effects (font (thickness 0.3048)))
    )
    (fp_text user 14 (at 65.4304 7.62) (layer F.SilkS)
      (effects (font (thickness 0.3048)))
    )
    (fp_text user 13 (at 60.4774 7.62) (layer F.SilkS)
      (effects (font (thickness 0.3048)))
    )
    (fp_text user 12 (at 55.4228 7.62) (layer F.SilkS)
      (effects (font (thickness 0.3048)))
    )
    (fp_text user 11 (at 50.4698 7.62) (layer F.SilkS)
      (effects (font (thickness 0.3048)))
    )
    (fp_text user 10 (at 45.3898 7.62) (layer F.SilkS)
      (effects (font (thickness 0.3048)))
    )
    (fp_text user 9 (at 40.5384 7.62) (layer F.SilkS)
      (effects (font (thickness 0.3048)))
    )
    (fp_text user 8 (at 35.5092 7.62) (layer F.SilkS)
      (effects (font (thickness 0.3048)))
    )
    (fp_text user 7 (at 30.607 7.62) (layer F.SilkS)
      (effects (font (thickness 0.3048)))
    )
    (fp_text user 6 (at 25.4254 7.5946) (layer F.SilkS)
      (effects (font (thickness 0.3048)))
    )
    (fp_text user 5 (at 20.4216 7.62) (layer F.SilkS)
      (effects (font (thickness 0.3048)))
    )
    (fp_text user 4 (at 15.3162 7.62) (layer F.SilkS)
      (effects (font (thickness 0.3048)))
    )
    (fp_text user 3 (at 10.2108 7.62) (layer F.SilkS)
      (effects (font (thickness 0.3048)))
    )
    (fp_text user 2 (at 5.2578 7.6454) (layer F.SilkS)
      (effects (font (thickness 0.3048)))
    )
    (fp_text user 1 (at 0 7.62) (layer F.SilkS)
      (effects (font (thickness 0.3048)))
    )
    (pad 1 thru_hole circle (at -0.0254 0) (size 2.99974 2.99974) (drill 1.00076) (layers Copper)
      (net 1 /PB1))
    (pad 2 thru_hole circle (at 5.0038 0) (size 2.99974 2.99974) (drill 1.00076) (layers Copper)
      (net 2 /PB2))
    (pad 3 thru_hole circle (at 10.033 0) (size 2.99974 2.99974) (drill 1.00076) (layers Copper)
      (net 3 /PB3))
    (pad 4 thru_hole circle (at 15.0876 0) (size 2.99974 2.99974) (drill 1.00076) (layers Copper)
      (net 4 /PB4))
    (pad 5 thru_hole circle (at 20.1168 0) (size 2.99974 2.99974) (drill 1.00076) (layers Copper)
      (net 5 /PB5))
    (pad 6 thru_hole circle (at 25.146 0) (size 2.99974 2.99974) (drill 1.00076) (layers Copper)
      (net 6 /PB6))
    (pad 7 thru_hole circle (at 30.1752 -0.0254) (size 2.99974 2.99974) (drill 1.00076) (layers Copper)
      (net 7 /PB7))
    (pad 8 thru_hole circle (at 35.2044 0) (size 2.99974 2.99974) (drill 1.00076) (layers Copper)
      (net 8 /PB8))
    (pad 9 thru_hole circle (at 40.2336 0) (size 2.99974 2.99974) (drill 1.00076) (layers Copper)
      (net 9 /PB9))
    (pad 10 thru_hole circle (at 45.2628 0) (size 2.99974 2.99974) (drill 1.00076) (layers Copper)
      (net 10 /PB10))
    (pad 11 thru_hole circle (at 50.292 0) (size 2.99974 2.99974) (drill 1.00076) (layers Copper)
      (net 11 /PB11))
    (pad 12 thru_hole circle (at 55.3212 0) (size 2.99974 2.99974) (drill 1.00076) (layers Copper)
      (net 12 /PB12))
    (pad 13 thru_hole circle (at 60.3504 0) (size 2.99974 2.99974) (drill 1.00076) (layers Copper)
      (net 13 /PB13))
    (pad 14 thru_hole circle (at 65.3796 -0.0254) (size 2.99974 2.99974) (drill 1.00076) (layers Copper)
      (net 14 /PB14))
    (pad 15 thru_hole circle (at 70.4088 0) (size 2.99974 2.99974) (drill 1.00076) (layers Copper)
      (net 15 /PB15))
    (pad 16 thru_hole circle (at 75.438 0) (size 2.99974 2.99974) (drill 1.00076) (layers Copper)
      (net 16 /PB16))
    (pad 17 thru_hole circle (at 80.4672 0) (size 2.99974 2.99974) (drill 1.00076) (layers Copper)
      (net 17 /PB17))
  )

  (module ST17 (layer Component) (tedit 4A4B3674) (tstamp 4A49CFA6)
    (at 34.29 109.22)
    (path /4A49CFA6)
    (fp_text reference P2 (at 3.81 -11.43) (layer F.SilkS)
      (effects (font (thickness 0.3048)))
    )
    (fp_text value CONN_17 (at 3.81 -8.89) (layer F.SilkS)
      (effects (font (thickness 0.3048)))
    )
    (fp_line (start -2.5146 10.16) (end 82.9818 10.16) (layer F.SilkS) (width 0.381))
    (fp_line (start 82.9818 5.08) (end -2.5146 5.08) (layer F.SilkS) (width 0.381))
    (fp_line (start 82.9818 -6.35) (end -2.54 -6.35) (layer F.SilkS) (width 0.381))
    (fp_line (start 12.573 -6.35) (end 12.573 10.16) (layer F.SilkS) (width 0.381))
    (fp_line (start 17.6022 -6.35) (end 17.6022 10.16) (layer F.SilkS) (width 0.381))
    (fp_line (start 22.6314 -6.35) (end 22.6314 10.16) (layer F.SilkS) (width 0.381))
    (fp_line (start 27.6606 -6.35) (end 27.6606 10.16) (layer F.SilkS) (width 0.381))
    (fp_line (start 32.6898 -6.35) (end 32.6898 10.16) (layer F.SilkS) (width 0.381))
    (fp_line (start 37.719 -6.35) (end 37.719 10.16) (layer F.SilkS) (width 0.381))
    (fp_line (start 42.7482 -6.35) (end 42.7482 10.16) (layer F.SilkS) (width 0.381))
    (fp_line (start 47.7774 -6.35) (end 47.7774 10.16) (layer F.SilkS) (width 0.381))
    (fp_line (start 52.8066 -6.35) (end 52.8066 10.16) (layer F.SilkS) (width 0.381))
    (fp_line (start 57.8358 -6.35) (end 57.8358 10.16) (layer F.SilkS) (width 0.381))
    (fp_line (start 62.865 -6.35) (end 62.865 10.16) (layer F.SilkS) (width 0.381))
    (fp_line (start 67.8942 -6.35) (end 67.8942 10.16) (layer F.SilkS) (width 0.381))
    (fp_line (start 72.9234 -6.35) (end 72.9234 10.16) (layer F.SilkS) (width 0.381))
    (fp_line (start 77.9526 -6.35) (end 77.9526 10.16) (layer F.SilkS) (width 0.381))
    (fp_line (start 82.9818 -6.35) (end 82.9818 10.16) (layer F.SilkS) (width 0.381))
    (fp_line (start 7.5184 -6.35) (end 7.5184 10.16) (layer F.SilkS) (width 0.381))
    (fp_line (start 2.4892 -6.35) (end 2.4892 10.16) (layer F.SilkS) (width 0.381))
    (fp_line (start -2.54 -6.35) (end -2.54 10.16) (layer F.SilkS) (width 0.381))
    (fp_text user 17 (at 80.5942 7.6454) (layer F.SilkS)
      (effects (font (thickness 0.3048)))
    )
    (fp_text user 16 (at 75.565 7.7216) (layer F.SilkS)
      (effects (font (thickness 0.3048)))
    )
    (fp_text user 15 (at 70.4596 7.7724) (layer F.SilkS)
      (effects (font (thickness 0.3048)))
    )
    (fp_text user 14 (at 65.4304 7.62) (layer F.SilkS)
      (effects (font (thickness 0.3048)))
    )
    (fp_text user 13 (at 60.4774 7.62) (layer F.SilkS)
      (effects (font (thickness 0.3048)))
    )
    (fp_text user 12 (at 55.4228 7.62) (layer F.SilkS)
      (effects (font (thickness 0.3048)))
    )
    (fp_text user 11 (at 50.4698 7.62) (layer F.SilkS)
      (effects (font (thickness 0.3048)))
    )
    (fp_text user 10 (at 45.3898 7.62) (layer F.SilkS)
      (effects (font (thickness 0.3048)))
    )
    (fp_text user 9 (at 40.5384 7.62) (layer F.SilkS)
      (effects (font (thickness 0.3048)))
    )
    (fp_text user 8 (at 35.5092 7.62) (layer F.SilkS)
      (effects (font (thickness 0.3048)))
    )
    (fp_text user 7 (at 30.607 7.62) (layer F.SilkS)
      (effects (font (thickness 0.3048)))
    )
    (fp_text user 6 (at 25.4254 7.5946) (layer F.SilkS)
      (effects (font (thickness 0.3048)))
    )
    (fp_text user 5 (at 20.4216 7.62) (layer F.SilkS)
      (effects (font (thickness 0.3048)))
    )
    (fp_text user 4 (at 15.3162 7.62) (layer F.SilkS)
      (effects (font (thickness 0.3048)))
    )
    (fp_text user 3 (at 10.2108 7.62) (layer F.SilkS)
      (effects (font (thickness 0.3048)))
    )
    (fp_text user 2 (at 5.2578 7.6454) (layer F.SilkS)
      (effects (font (thickness 0.3048)))
    )
    (fp_text user 1 (at 0 7.62) (layer F.SilkS)
      (effects (font (thickness 0.3048)))
    )
    (pad 1 thru_hole circle (at -0.0254 0) (size 2.99974 2.99974) (drill 1.00076) (layers Copper)
      (net 19 /PA1))
    (pad 2 thru_hole circle (at 5.0038 0) (size 2.99974 2.99974) (drill 1.00076) (layers Copper)
      (net 20 /PA2))
    (pad 3 thru_hole circle (at 10.033 0) (size 2.99974 2.99974) (drill 1.00076) (layers Copper)
      (net 21 /PA3))
    (pad 4 thru_hole circle (at 15.0876 0) (size 2.99974 2.99974) (drill 1.00076) (layers Copper)
      (net 22 /PA4))
    (pad 5 thru_hole circle (at 20.1168 0) (size 2.99974 2.99974) (drill 1.00076) (layers Copper)
      (net 23 /PA5))
    (pad 6 thru_hole circle (at 25.146 0) (size 2.99974 2.99974) (drill 1.00076) (layers Copper)
      (net 24 /PA6))
    (pad 7 thru_hole circle (at 30.1752 -0.0254) (size 2.99974 2.99974) (drill 1.00076) (layers Copper)
      (net 25 /PA7))
    (pad 8 thru_hole circle (at 35.2044 0) (size 2.99974 2.99974) (drill 1.00076) (layers Copper)
      (net 26 /PA8))
    (pad 9 thru_hole circle (at 40.2336 0) (size 2.99974 2.99974) (drill 1.00076) (layers Copper)
      (net 27 /PA9))
    (pad 10 thru_hole circle (at 45.2628 0) (size 2.99974 2.99974) (drill 1.00076) (layers Copper)
      (net 28 /PA10))
    (pad 11 thru_hole circle (at 50.292 0) (size 2.99974 2.99974) (drill 1.00076) (layers Copper)
      (net 29 /PA11))
    (pad 12 thru_hole circle (at 55.3212 0) (size 2.99974 2.99974) (drill 1.00076) (layers Copper)
      (net 30 /PA12))
    (pad 13 thru_hole circle (at 60.3504 0) (size 2.99974 2.99974) (drill 1.00076) (layers Copper)
      (net 31 /PA13))
    (pad 14 thru_hole circle (at 65.3796 -0.0254) (size 2.99974 2.99974) (drill 1.00076) (layers Copper)
      (net 32 /PA14))
    (pad 15 thru_hole circle (at 70.4088 0) (size 2.99974 2.99974) (drill 1.00076) (layers Copper)
      (net 33 /PA15))
    (pad 16 thru_hole circle (at 75.438 0) (size 2.99974 2.99974) (drill 1.00076) (layers Copper)
      (net 34 /PA16))
    (pad 17 thru_hole circle (at 80.4672 0) (size 2.99974 2.99974) (drill 1.00076) (layers Copper)
      (net 35 /PA17))
  )

  (module ST8 (layer Component) (tedit 4A4B3C55) (tstamp 4A49CFC5)
    (at 121.92 109.22)
    (path /4A49CFC5)
    (fp_text reference P1 (at 2.8194 -11.2522) (layer F.SilkS)
      (effects (font (thickness 0.3048)))
    )
    (fp_text value CONN_8 (at 3.81 -8.89) (layer F.SilkS)
      (effects (font (thickness 0.3048)))
    )
    (fp_line (start 37.719 5.0546) (end -2.54 5.0546) (layer F.SilkS) (width 0.381))
    (fp_line (start -2.54 10.16) (end 37.719 10.16) (layer F.SilkS) (width 0.381))
    (fp_line (start 37.719 -6.3754) (end -2.54 -6.3754) (layer F.SilkS) (width 0.381))
    (fp_line (start 12.573 -6.35) (end 12.573 10.16) (layer F.SilkS) (width 0.381))
    (fp_line (start 17.6022 -6.35) (end 17.6022 10.16) (layer F.SilkS) (width 0.381))
    (fp_line (start 22.6314 -6.35) (end 22.6314 10.16) (layer F.SilkS) (width 0.381))
    (fp_line (start 27.6606 -6.35) (end 27.6606 10.16) (layer F.SilkS) (width 0.381))
    (fp_line (start 32.6898 -6.35) (end 32.6898 10.16) (layer F.SilkS) (width 0.381))
    (fp_line (start 37.719 -6.35) (end 37.719 10.16) (layer F.SilkS) (width 0.381))
    (fp_line (start 7.5184 -6.35) (end 7.5184 10.16) (layer F.SilkS) (width 0.381))
    (fp_line (start 2.4892 -6.35) (end 2.4892 10.16) (layer F.SilkS) (width 0.381))
    (fp_line (start -2.54 -6.35) (end -2.54 10.16) (layer F.SilkS) (width 0.381))
    (fp_text user 8 (at 35.5092 7.62) (layer F.SilkS)
      (effects (font (thickness 0.3048)))
    )
    (fp_text user 7 (at 30.607 7.62) (layer F.SilkS)
      (effects (font (thickness 0.3048)))
    )
    (fp_text user 6 (at 25.4254 7.5946) (layer F.SilkS)
      (effects (font (thickness 0.3048)))
    )
    (fp_text user 5 (at 20.4216 7.62) (layer F.SilkS)
      (effects (font (thickness 0.3048)))
    )
    (fp_text user 4 (at 15.3162 7.62) (layer F.SilkS)
      (effects (font (thickness 0.3048)))
    )
    (fp_text user 3 (at 10.2108 7.62) (layer F.SilkS)
      (effects (font (thickness 0.3048)))
    )
    (fp_text user 2 (at 5.2578 7.6454) (layer F.SilkS)
      (effects (font (thickness 0.3048)))
    )
    (fp_text user 1 (at 0 7.62) (layer F.SilkS)
      (effects (font (thickness 0.3048)))
    )
    (pad 1 thru_hole circle (at -0.0254 0) (size 2.99974 2.99974) (drill 1.00076) (layers Copper)
      (net 18 N-000001))
    (pad 2 thru_hole circle (at 5.0038 0) (size 2.99974 2.99974) (drill 1.00076) (layers Copper)
      (net 18 N-000001))
    (pad 3 thru_hole circle (at 10.033 0) (size 2.99974 2.99974) (drill 1.00076) (layers Copper)
      (net 18 N-000001))
    (pad 4 thru_hole circle (at 15.0876 0) (size 2.99974 2.99974) (drill 1.00076) (layers Copper)
      (net 18 N-000001))
    (pad 5 thru_hole circle (at 20.1168 0) (size 2.99974 2.99974) (drill 1.00076) (layers Copper)
      (net 18 N-000001))
    (pad 6 thru_hole circle (at 25.146 0) (size 2.99974 2.99974) (drill 1.00076) (layers Copper)
      (net 18 N-000001))
    (pad 7 thru_hole circle (at 30.1752 -0.0254) (size 2.99974 2.99974) (drill 1.00076) (layers Copper)
      (net 18 N-000001))
    (pad 8 thru_hole circle (at 35.2044 0) (size 2.99974 2.99974) (drill 1.00076) (layers Copper)
      (net 18 N-000001))
  )

  (gr_line (start 26.67 127) (end 26.67 126.365) (angle 90) (layer F.SilkS) (width 0.381))
  (gr_line (start 251.46 127) (end 26.67 127) (angle 90) (layer F.SilkS) (width 0.381))
  (gr_line (start 251.46 76.835) (end 251.46 127) (angle 90) (layer F.SilkS) (width 0.381))
  (gr_line (start 26.67 76.835) (end 251.46 76.835) (angle 90) (layer F.SilkS) (width 0.381))
  (gr_line (start 26.67 78.105) (end 26.67 76.835) (angle 90) (layer F.SilkS) (width 0.381))
  (gr_line (start 26.67 126.365) (end 26.67 78.105) (angle 90) (layer F.SilkS) (width 0.381))
  (target plus (at 29.845 123.825) (size 5.00126) (width 0.381) (layer Edge.Cuts))
  (target plus (at 248.285 123.825) (size 5.00126) (width 0.381) (layer Edge.Cuts))
  (target plus (at 118.745 123.825) (size 5.00126) (width 0.381) (layer Edge.Cuts))
  (target plus (at 160.655 123.825) (size 5.00126) (width 0.381) (layer Edge.Cuts))
  (gr_text "Gnd Bus" (at 147.955 97.79) (layer F.SilkS)
    (effects (font (size 5.00126 2.49936) (thickness 0.3048)))
  )
  (gr_text "Parallel Port B" (at 224.155 98.425) (layer F.SilkS)
    (effects (font (size 5.00126 2.49936) (thickness 0.3048)))
  )
  (gr_text "Parallel Port A" (at 93.98 97.79) (layer F.SilkS)
    (effects (font (size 5.00126 2.49936) (thickness 0.3048)))
  )

  (segment (start 255.27 76.835) (end 247.65 76.835) (width 0.4318) (layer Copper) (net 0))
  (segment (start 251.46 73.025) (end 251.46 80.645) (width 0.4318) (layer Copper) (net 0))
  (segment (start 22.86 76.835) (end 30.48 76.835) (width 0.4318) (layer Copper) (net 0))
  (segment (start 26.67 73.025) (end 26.67 80.645) (width 0.4318) (layer Copper) (net 0))
  (segment (start 22.86 127) (end 30.48 127) (width 0.4318) (layer Copper) (net 0))
  (segment (start 26.67 130.81) (end 26.67 123.19) (width 0.4318) (layer Copper) (net 0))
  (segment (start 251.46 130.81) (end 251.46 123.19) (width 0.4318) (layer Copper) (net 0))
  (segment (start 255.27 127) (end 247.65 127) (width 0.4318) (layer Copper) (net 0))
  (segment (start 170.688 90.678) (end 164.4396 96.9264) (width 0.4318) (layer Copper) (net 1))
  (segment (start 164.4396 96.9264) (end 164.4396 109.22) (width 0.4318) (layer Copper) (net 1) (status 400))
  (segment (start 170.688 89.027) (end 170.688 90.678) (width 0.4318) (layer Copper) (net 1) (status 800))
  (segment (start 173.482 90.678) (end 169.4688 94.6912) (width 0.4318) (layer Copper) (net 2))
  (segment (start 169.4688 94.6912) (end 169.4688 109.22) (width 0.4318) (layer Copper) (net 2) (status 400))
  (segment (start 173.482 89.027) (end 173.482 90.678) (width 0.4318) (layer Copper) (net 2) (status 800))
  (segment (start 176.276 90.551) (end 174.498 92.329) (width 0.4318) (layer Copper) (net 3))
  (segment (start 174.498 92.329) (end 174.498 109.22) (width 0.4318) (layer Copper) (net 3) (status 400))
  (segment (start 176.276 89.027) (end 176.276 90.551) (width 0.4318) (layer Copper) (net 3) (status 800))
  (segment (start 179.07 90.805) (end 179.5526 91.2876) (width 0.4318) (layer Copper) (net 4))
  (segment (start 179.5526 91.2876) (end 179.5526 109.22) (width 0.4318) (layer Copper) (net 4) (status 400))
  (segment (start 179.07 89.027) (end 179.07 90.805) (width 0.4318) (layer Copper) (net 4) (status 800))
  (segment (start 181.864 90.551) (end 184.5818 93.2688) (width 0.4318) (layer Copper) (net 5))
  (segment (start 184.5818 93.2688) (end 184.5818 109.22) (width 0.4318) (layer Copper) (net 5) (status 400))
  (segment (start 181.864 89.027) (end 181.864 90.551) (width 0.4318) (layer Copper) (net 5) (status 800))
  (segment (start 184.531 90.551) (end 189.611 95.631) (width 0.4318) (layer Copper) (net 6))
  (segment (start 189.611 95.631) (end 189.611 109.22) (width 0.4318) (layer Copper) (net 6) (status 400))
  (segment (start 184.531 89.027) (end 184.531 90.551) (width 0.4318) (layer Copper) (net 6) (status 800))
  (segment (start 187.325 90.805) (end 194.6402 98.1202) (width 0.4318) (layer Copper) (net 7))
  (segment (start 194.6402 98.1202) (end 194.6402 109.1946) (width 0.4318) (layer Copper) (net 7) (status 400))
  (segment (start 187.325 89.027) (end 187.325 90.805) (width 0.4318) (layer Copper) (net 7) (status 800))
  (segment (start 190.119 90.424) (end 199.6694 99.9744) (width 0.4318) (layer Copper) (net 8))
  (segment (start 199.6694 99.9744) (end 199.6694 109.22) (width 0.4318) (layer Copper) (net 8) (status 400))
  (segment (start 190.119 89.027) (end 190.119 90.424) (width 0.4318) (layer Copper) (net 8) (status 800))
  (segment (start 192.913 90.678) (end 204.6986 102.4636) (width 0.4318) (layer Copper) (net 9))
  (segment (start 204.6986 102.4636) (end 204.6986 109.22) (width 0.4318) (layer Copper) (net 9) (status 400))
  (segment (start 192.913 89.027) (end 192.913 90.678) (width 0.4318) (layer Copper) (net 9) (status 800))
  (segment (start 195.707 90.932) (end 200.66 95.885) (width 0.4318) (layer Copper) (net 10))
  (segment (start 200.66 95.885) (end 201.93 95.885) (width 0.4318) (layer Copper) (net 10))
  (segment (start 201.93 95.885) (end 209.7278 103.6828) (width 0.4318) (layer Copper) (net 10))
  (segment (start 209.7278 103.6828) (end 209.7278 109.22) (width 0.4318) (layer Copper) (net 10) (status 400))
  (segment (start 195.707 89.027) (end 195.707 90.932) (width 0.4318) (layer Copper) (net 10) (status 800))
  (segment (start 198.374 90.424) (end 202.565 94.615) (width 0.4318) (layer Copper) (net 11))
  (segment (start 202.565 94.615) (end 203.835 94.615) (width 0.4318) (layer Copper) (net 11))
  (segment (start 203.835 94.615) (end 214.757 105.537) (width 0.4318) (layer Copper) (net 11))
  (segment (start 214.757 105.537) (end 214.757 109.22) (width 0.4318) (layer Copper) (net 11) (status 400))
  (segment (start 198.374 89.027) (end 198.374 90.424) (width 0.4318) (layer Copper) (net 11) (status 800))
  (segment (start 201.168 90.678) (end 203.835 93.345) (width 0.4318) (layer Copper) (net 12))
  (segment (start 203.835 93.345) (end 207.01 93.345) (width 0.4318) (layer Copper) (net 12))
  (segment (start 207.01 93.345) (end 219.7862 106.1212) (width 0.4318) (layer Copper) (net 12))
  (segment (start 219.7862 106.1212) (end 219.7862 109.22) (width 0.4318) (layer Copper) (net 12) (status 400))
  (segment (start 201.168 89.027) (end 201.168 90.678) (width 0.4318) (layer Copper) (net 12) (status 800))
  (segment (start 203.962 90.678) (end 205.359 92.075) (width 0.4318) (layer Copper) (net 13))
  (segment (start 205.359 92.075) (end 210.82 92.075) (width 0.4318) (layer Copper) (net 13))
  (segment (start 210.82 92.075) (end 224.8154 106.0704) (width 0.4318) (layer Copper) (net 13))
  (segment (start 224.8154 106.0704) (end 224.8154 109.22) (width 0.4318) (layer Copper) (net 13) (status 400))
  (segment (start 203.962 89.027) (end 203.962 90.678) (width 0.4318) (layer Copper) (net 13) (status 800))
  (segment (start 172.085 84.455) (end 178.435 78.105) (width 0.4318) (layer Copper) (net 14))
  (segment (start 178.435 78.105) (end 225.425 78.105) (width 0.4318) (layer Copper) (net 14))
  (segment (start 225.425 78.105) (end 250.19 102.87) (width 0.4318) (layer Copper) (net 14))
  (segment (start 250.19 102.87) (end 250.19 112.395) (width 0.4318) (layer Copper) (net 14))
  (segment (start 250.19 112.395) (end 248.285 114.3) (width 0.4318) (layer Copper) (net 14))
  (segment (start 248.285 114.3) (end 234.95 114.3) (width 0.4318) (layer Copper) (net 14))
  (segment (start 234.95 114.3) (end 229.8446 109.1946) (width 0.4318) (layer Copper) (net 14) (status 400))
  (segment (start 172.085 86.233) (end 172.085 84.455) (width 0.4318) (layer Copper) (net 14) (status 800))
  (segment (start 174.879 84.201) (end 179.705 79.375) (width 0.4318) (layer Copper) (net 15))
  (segment (start 179.705 79.375) (end 224.79 79.375) (width 0.4318) (layer Copper) (net 15))
  (segment (start 224.79 79.375) (end 248.92 103.505) (width 0.4318) (layer Copper) (net 15))
  (segment (start 248.92 103.505) (end 248.92 111.76) (width 0.4318) (layer Copper) (net 15))
  (segment (start 248.92 111.76) (end 247.65 113.03) (width 0.4318) (layer Copper) (net 15))
  (segment (start 247.65 113.03) (end 238.6838 113.03) (width 0.4318) (layer Copper) (net 15))
  (segment (start 238.6838 113.03) (end 234.8738 109.22) (width 0.4318) (layer Copper) (net 15) (status 400))
  (segment (start 174.879 86.233) (end 174.879 84.201) (width 0.4318) (layer Copper) (net 15) (status 800))
  (segment (start 177.673 84.582) (end 181.61 80.645) (width 0.4318) (layer Copper) (net 16))
  (segment (start 181.61 80.645) (end 224.155 80.645) (width 0.4318) (layer Copper) (net 16))
  (segment (start 224.155 80.645) (end 247.65 104.14) (width 0.4318) (layer Copper) (net 16))
  (segment (start 247.65 104.14) (end 247.65 111.125) (width 0.4318) (layer Copper) (net 16))
  (segment (start 247.65 111.125) (end 247.015 111.76) (width 0.4318) (layer Copper) (net 16))
  (segment (start 247.015 111.76) (end 242.443 111.76) (width 0.4318) (layer Copper) (net 16))
  (segment (start 242.443 111.76) (end 239.903 109.22) (width 0.4318) (layer Copper) (net 16) (status 400))
  (segment (start 177.673 86.233) (end 177.673 84.582) (width 0.4318) (layer Copper) (net 16) (status 800))
  (segment (start 180.34 84.455) (end 182.88 81.915) (width 0.4318) (layer Copper) (net 17))
  (segment (start 182.88 81.915) (end 223.52 81.915) (width 0.4318) (layer Copper) (net 17))
  (segment (start 223.52 81.915) (end 244.9322 103.3272) (width 0.4318) (layer Copper) (net 17))
  (segment (start 244.9322 103.3272) (end 244.9322 109.22) (width 0.4318) (layer Copper) (net 17) (status 400))
  (segment (start 180.34 86.233) (end 180.34 84.455) (width 0.4318) (layer Copper) (net 17) (status 800))
  (segment (start 87.249 86.233) (end 90.043 86.233) (width 0.4318) (layer Copper) (net 18) (status C00))
  (segment (start 90.043 86.233) (end 92.837 86.233) (width 0.4318) (layer Copper) (net 18) (status C00))
  (segment (start 92.837 86.233) (end 95.631 86.233) (width 0.4318) (layer Copper) (net 18) (status C00))
  (segment (start 95.631 86.233) (end 98.298 86.233) (width 0.4318) (layer Copper) (net 18) (status C00))
  (segment (start 98.298 86.233) (end 101.092 86.233) (width 0.4318) (layer Copper) (net 18) (status C00))
  (segment (start 101.092 86.233) (end 103.886 86.233) (width 0.4318) (layer Copper) (net 18) (status C00))
  (segment (start 103.886 86.233) (end 106.68 86.233) (width 0.4318) (layer Copper) (net 18) (status C00))
  (segment (start 121.8946 109.22) (end 126.9238 109.22) (width 0.4318) (layer Copper) (net 18) (status C00))
  (segment (start 126.9238 109.22) (end 131.953 109.22) (width 0.4318) (layer Copper) (net 18) (status C00))
  (segment (start 131.953 109.22) (end 137.0076 109.22) (width 0.4318) (layer Copper) (net 18) (status C00))
  (segment (start 137.0076 109.22) (end 142.0368 109.22) (width 0.4318) (layer Copper) (net 18) (status C00))
  (segment (start 142.0368 109.22) (end 147.066 109.22) (width 0.4318) (layer Copper) (net 18) (status C00))
  (segment (start 152.0698 109.22) (end 152.0952 109.1946) (width 0.4318) (layer Copper) (net 18) (status 400))
  (segment (start 147.066 109.22) (end 152.0698 109.22) (width 0.4318) (layer Copper) (net 18) (status 800))
  (segment (start 157.099 109.1946) (end 157.1244 109.22) (width 0.4318) (layer Copper) (net 18) (status 400))
  (segment (start 152.0952 109.1946) (end 157.099 109.1946) (width 0.4318) (layer Copper) (net 18) (status 800))
  (segment (start 106.68 84.455) (end 107.95 83.185) (width 0.4318) (layer Copper) (net 18))
  (segment (start 107.95 83.185) (end 120.015 83.185) (width 0.4318) (layer Copper) (net 18))
  (segment (start 120.015 83.185) (end 121.8946 85.0646) (width 0.4318) (layer Copper) (net 18))
  (segment (start 121.8946 85.0646) (end 121.8946 109.22) (width 0.4318) (layer Copper) (net 18) (status 400))
  (segment (start 106.68 86.233) (end 106.68 84.455) (width 0.4318) (layer Copper) (net 18) (status 800))
  (segment (start 160.2994 112.395) (end 157.1244 109.22) (width 0.4318) (layer Copper) (net 18) (status 400))
  (segment (start 225.425 112.395) (end 160.2994 112.395) (width 0.4318) (layer Copper) (net 18))
  (segment (start 227.33 110.49) (end 225.425 112.395) (width 0.4318) (layer Copper) (net 18))
  (segment (start 227.33 87.63) (end 227.33 110.49) (width 0.4318) (layer Copper) (net 18))
  (segment (start 222.885 83.185) (end 227.33 87.63) (width 0.4318) (layer Copper) (net 18))
  (segment (start 203.835 83.185) (end 222.885 83.185) (width 0.4318) (layer Copper) (net 18))
  (segment (start 202.565 84.455) (end 203.835 83.185) (width 0.4318) (layer Copper) (net 18))
  (segment (start 202.565 86.233) (end 202.565 84.455) (width 0.4318) (layer Copper) (net 18) (status 800))
  (segment (start 183.134 86.233) (end 185.928 86.233) (width 0.4318) (layer Copper) (net 18) (status C00))
  (segment (start 185.928 86.233) (end 188.722 86.233) (width 0.4318) (layer Copper) (net 18) (status C00))
  (segment (start 188.722 86.233) (end 191.516 86.233) (width 0.4318) (layer Copper) (net 18) (status C00))
  (segment (start 191.516 86.233) (end 194.183 86.233) (width 0.4318) (layer Copper) (net 18) (status C00))
  (segment (start 194.183 86.233) (end 196.977 86.233) (width 0.4318) (layer Copper) (net 18) (status C00))
  (segment (start 196.977 86.233) (end 199.771 86.233) (width 0.4318) (layer Copper) (net 18) (status C00))
  (segment (start 199.771 86.233) (end 202.565 86.233) (width 0.4318) (layer Copper) (net 18) (status C00))
  (segment (start 74.803 90.678) (end 73.406 92.075) (width 0.4318) (layer Copper) (net 19))
  (segment (start 73.406 92.075) (end 48.895 92.075) (width 0.4318) (layer Copper) (net 19))
  (segment (start 48.895 92.075) (end 34.2646 106.7054) (width 0.4318) (layer Copper) (net 19))
  (segment (start 34.2646 106.7054) (end 34.2646 109.22) (width 0.4318) (layer Copper) (net 19) (status 400))
  (segment (start 74.803 89.027) (end 74.803 90.678) (width 0.4318) (layer Copper) (net 19) (status 800))
  (segment (start 77.597 90.678) (end 74.93 93.345) (width 0.4318) (layer Copper) (net 20))
  (segment (start 74.93 93.345) (end 52.705 93.345) (width 0.4318) (layer Copper) (net 20))
  (segment (start 52.705 93.345) (end 39.2938 106.7562) (width 0.4318) (layer Copper) (net 20))
  (segment (start 39.2938 106.7562) (end 39.2938 109.22) (width 0.4318) (layer Copper) (net 20) (status 400))
  (segment (start 77.597 89.027) (end 77.597 90.678) (width 0.4318) (layer Copper) (net 20) (status 800))
  (segment (start 80.391 90.551) (end 76.327 94.615) (width 0.4318) (layer Copper) (net 21))
  (segment (start 76.327 94.615) (end 56.515 94.615) (width 0.4318) (layer Copper) (net 21))
  (segment (start 56.515 94.615) (end 44.323 106.807) (width 0.4318) (layer Copper) (net 21))
  (segment (start 44.323 106.807) (end 44.323 109.22) (width 0.4318) (layer Copper) (net 21) (status 400))
  (segment (start 80.391 89.027) (end 80.391 90.551) (width 0.4318) (layer Copper) (net 21) (status 800))
  (segment (start 83.185 90.805) (end 78.105 95.885) (width 0.4318) (layer Copper) (net 22))
  (segment (start 78.105 95.885) (end 60.325 95.885) (width 0.4318) (layer Copper) (net 22))
  (segment (start 60.325 95.885) (end 49.3776 106.8324) (width 0.4318) (layer Copper) (net 22))
  (segment (start 49.3776 106.8324) (end 49.3776 109.22) (width 0.4318) (layer Copper) (net 22) (status 400))
  (segment (start 83.185 89.027) (end 83.185 90.805) (width 0.4318) (layer Copper) (net 22) (status 800))
  (segment (start 85.979 90.551) (end 79.375 97.155) (width 0.4318) (layer Copper) (net 23))
  (segment (start 79.375 97.155) (end 64.135 97.155) (width 0.4318) (layer Copper) (net 23))
  (segment (start 64.135 97.155) (end 54.4068 106.8832) (width 0.4318) (layer Copper) (net 23))
  (segment (start 54.4068 106.8832) (end 54.4068 109.22) (width 0.4318) (layer Copper) (net 23) (status 400))
  (segment (start 85.979 89.027) (end 85.979 90.551) (width 0.4318) (layer Copper) (net 23) (status 800))
  (segment (start 88.646 90.551) (end 80.772 98.425) (width 0.4318) (layer Copper) (net 24))
  (segment (start 80.772 98.425) (end 67.945 98.425) (width 0.4318) (layer Copper) (net 24))
  (segment (start 67.945 98.425) (end 59.436 106.934) (width 0.4318) (layer Copper) (net 24))
  (segment (start 59.436 106.934) (end 59.436 109.22) (width 0.4318) (layer Copper) (net 24) (status 400))
  (segment (start 88.646 89.027) (end 88.646 90.551) (width 0.4318) (layer Copper) (net 24) (status 800))
  (segment (start 91.44 90.805) (end 82.55 99.695) (width 0.4318) (layer Copper) (net 25))
  (segment (start 82.55 99.695) (end 71.755 99.695) (width 0.4318) (layer Copper) (net 25))
  (segment (start 71.755 99.695) (end 64.4652 106.9848) (width 0.4318) (layer Copper) (net 25))
  (segment (start 64.4652 106.9848) (end 64.4652 109.1946) (width 0.4318) (layer Copper) (net 25) (status 400))
  (segment (start 91.44 89.027) (end 91.44 90.805) (width 0.4318) (layer Copper) (net 25) (status 800))
  (segment (start 94.234 90.551) (end 83.82 100.965) (width 0.4318) (layer Copper) (net 26))
  (segment (start 83.82 100.965) (end 75.565 100.965) (width 0.4318) (layer Copper) (net 26))
  (segment (start 75.565 100.965) (end 69.4944 107.0356) (width 0.4318) (layer Copper) (net 26))
  (segment (start 69.4944 107.0356) (end 69.4944 109.22) (width 0.4318) (layer Copper) (net 26) (status 400))
  (segment (start 94.234 89.027) (end 94.234 90.551) (width 0.4318) (layer Copper) (net 26) (status 800))
  (segment (start 97.028 90.678) (end 85.471 102.235) (width 0.4318) (layer Copper) (net 27))
  (segment (start 85.471 102.235) (end 79.375 102.235) (width 0.4318) (layer Copper) (net 27))
  (segment (start 79.375 102.235) (end 74.5236 107.0864) (width 0.4318) (layer Copper) (net 27))
  (segment (start 74.5236 107.0864) (end 74.5236 109.22) (width 0.4318) (layer Copper) (net 27) (status 400))
  (segment (start 97.028 89.027) (end 97.028 90.678) (width 0.4318) (layer Copper) (net 27) (status 800))
  (segment (start 99.822 90.678) (end 86.995 103.505) (width 0.4318) (layer Copper) (net 28))
  (segment (start 86.995 103.505) (end 83.185 103.505) (width 0.4318) (layer Copper) (net 28))
  (segment (start 83.185 103.505) (end 79.5528 107.1372) (width 0.4318) (layer Copper) (net 28))
  (segment (start 79.5528 107.1372) (end 79.5528 109.22) (width 0.4318) (layer Copper) (net 28) (status 400))
  (segment (start 99.822 89.027) (end 99.822 90.678) (width 0.4318) (layer Copper) (net 28) (status 800))
  (segment (start 102.489 90.551) (end 88.265 104.775) (width 0.4318) (layer Copper) (net 29))
  (segment (start 88.265 104.775) (end 86.995 104.775) (width 0.4318) (layer Copper) (net 29))
  (segment (start 86.995 104.775) (end 84.582 107.188) (width 0.4318) (layer Copper) (net 29))
  (segment (start 84.582 107.188) (end 84.582 109.22) (width 0.4318) (layer Copper) (net 29) (status 400))
  (segment (start 102.489 89.027) (end 102.489 90.551) (width 0.4318) (layer Copper) (net 29) (status 800))
  (segment (start 105.283 90.678) (end 89.6112 106.3498) (width 0.4318) (layer Copper) (net 30))
  (segment (start 89.6112 106.3498) (end 89.6112 109.22) (width 0.4318) (layer Copper) (net 30) (status 400))
  (segment (start 105.283 89.027) (end 105.283 90.678) (width 0.4318) (layer Copper) (net 30) (status 800))
  (segment (start 108.077 90.678) (end 94.6404 104.1146) (width 0.4318) (layer Copper) (net 31))
  (segment (start 94.6404 104.1146) (end 94.6404 109.22) (width 0.4318) (layer Copper) (net 31) (status 400))
  (segment (start 108.077 89.027) (end 108.077 90.678) (width 0.4318) (layer Copper) (net 31) (status 800))
  (segment (start 76.2 84.455) (end 74.93 83.185) (width 0.4318) (layer Copper) (net 32))
  (segment (start 74.93 83.185) (end 55.245 83.185) (width 0.4318) (layer Copper) (net 32))
  (segment (start 55.245 83.185) (end 31.75 106.68) (width 0.4318) (layer Copper) (net 32))
  (segment (start 31.75 106.68) (end 31.75 110.49) (width 0.4318) (layer Copper) (net 32))
  (segment (start 31.75 110.49) (end 33.02 111.76) (width 0.4318) (layer Copper) (net 32))
  (segment (start 33.02 111.76) (end 97.1042 111.76) (width 0.4318) (layer Copper) (net 32))
  (segment (start 97.1042 111.76) (end 99.6696 109.1946) (width 0.4318) (layer Copper) (net 32) (status 400))
  (segment (start 76.2 86.233) (end 76.2 84.455) (width 0.4318) (layer Copper) (net 32) (status 800))
  (segment (start 78.994 84.709) (end 76.2 81.915) (width 0.4318) (layer Copper) (net 33))
  (segment (start 76.2 81.915) (end 54.61 81.915) (width 0.4318) (layer Copper) (net 33))
  (segment (start 54.61 81.915) (end 30.48 106.045) (width 0.4318) (layer Copper) (net 33))
  (segment (start 30.48 106.045) (end 30.48 111.125) (width 0.4318) (layer Copper) (net 33))
  (segment (start 30.48 111.125) (end 32.385 113.03) (width 0.4318) (layer Copper) (net 33))
  (segment (start 32.385 113.03) (end 100.8888 113.03) (width 0.4318) (layer Copper) (net 33))
  (segment (start 100.8888 113.03) (end 104.6988 109.22) (width 0.4318) (layer Copper) (net 33) (status 400))
  (segment (start 78.994 86.233) (end 78.994 84.709) (width 0.4318) (layer Copper) (net 33) (status 800))
  (segment (start 81.788 84.328) (end 78.105 80.645) (width 0.4318) (layer Copper) (net 34))
  (segment (start 78.105 80.645) (end 53.975 80.645) (width 0.4318) (layer Copper) (net 34))
  (segment (start 53.975 80.645) (end 29.21 105.41) (width 0.4318) (layer Copper) (net 34))
  (segment (start 29.21 105.41) (end 29.21 111.76) (width 0.4318) (layer Copper) (net 34))
  (segment (start 29.21 111.76) (end 31.75 114.3) (width 0.4318) (layer Copper) (net 34))
  (segment (start 31.75 114.3) (end 104.648 114.3) (width 0.4318) (layer Copper) (net 34))
  (segment (start 104.648 114.3) (end 109.728 109.22) (width 0.4318) (layer Copper) (net 34) (status 400))
  (segment (start 81.788 86.233) (end 81.788 84.328) (width 0.4318) (layer Copper) (net 34) (status 800))
  (segment (start 84.455 84.455) (end 79.375 79.375) (width 0.4318) (layer Copper) (net 35))
  (segment (start 79.375 79.375) (end 53.34 79.375) (width 0.4318) (layer Copper) (net 35))
  (segment (start 53.34 79.375) (end 27.94 104.775) (width 0.4318) (layer Copper) (net 35))
  (segment (start 27.94 104.775) (end 27.94 112.395) (width 0.4318) (layer Copper) (net 35))
  (segment (start 27.94 112.395) (end 31.115 115.57) (width 0.4318) (layer Copper) (net 35))
  (segment (start 31.115 115.57) (end 108.4072 115.57) (width 0.4318) (layer Copper) (net 35))
  (segment (start 108.4072 115.57) (end 114.7572 109.22) (width 0.4318) (layer Copper) (net 35) (status 400))
  (segment (start 84.455 86.233) (end 84.455 84.455) (width 0.4318) (layer Copper) (net 35) (status 800))

)
