EESchema Schematic File Version 2
LIBS:power
LIBS:device
LIBS:transistors
LIBS:conn
LIBS:linear
LIBS:regul
LIBS:74xx
LIBS:cmos4000
LIBS:adc-dac
LIBS:memory
LIBS:xilinx
LIBS:special
LIBS:microcontrollers
LIBS:dsp
LIBS:microchip
LIBS:analog_switches
LIBS:motorola
LIBS:texas
LIBS:intel
LIBS:audio
LIBS:interface
LIBS:digital-audio
LIBS:philips
LIBS:display
LIBS:cypress
LIBS:siliconi
LIBS:opto
LIBS:atmel
LIBS:contrib
LIBS:valves
LIBS:atxbenchpsu
LIBS:atxbenchpsu-cache
EELAYER 27 0
EELAYER END
$Descr A4 11693 8268
encoding utf-8
Sheet 1 1
Title "ATX Bench PSU Breakout"
Date "16 may 2015"
Rev "1.0"
Comp "Kirby & Co"
Comment1 "http://creativecommons.org/licenses/by-sa/3.0"
Comment2 "Licensing: CC Attribution-Share Alike 3.0 Unported"
Comment3 "Author: Andy Kirby (andy@kirbyand.co.uk, www.kirbyand.co.uk)"
Comment4 ""
$EndDescr
$Comp
L ATXPLUGBRD C1
U 1 1 5555D930
P 4700 3750
F 0 "C1" H 4700 3650 50  0000 C CNN
F 1 "ATXPLUGBRD" H 4700 3850 50  0000 C CNN
F 2 "MODULE" H 4700 3750 50  0001 C CNN
F 3 "DOCUMENTATION" H 4700 3750 50  0001 C CNN
	1    4700 3750
	1    0    0    -1  
$EndComp
Text Notes 5400 3200 0    60   ~ 0
Orange
Text Notes 5400 3300 0    60   ~ 0
Orange
Text Notes 5400 3400 0    60   ~ 0
Black
Text Notes 5400 3500 0    60   ~ 0
Red
Text Notes 5400 3600 0    60   ~ 0
Black
Text Notes 5400 3800 0    60   ~ 0
Black
Text Notes 5400 3700 0    60   ~ 0
Red
Text Notes 5400 3900 0    60   ~ 0
Gray
Text Notes 5400 4000 0    60   ~ 0
Purple
Text Notes 5400 4100 0    60   ~ 0
Yellow
Text Notes 5400 4200 0    60   ~ 0
Yellow
Text Notes 5400 4300 0    60   ~ 0
Orange
Text Notes 4000 3200 2    60   ~ 0
Brown
Text Notes 4000 3300 2    60   ~ 0
Blue
Text Notes 4000 3400 2    60   ~ 0
Black
Text Notes 4000 3600 2    60   ~ 0
Black
Text Notes 4000 3700 2    60   ~ 0
Black
Text Notes 4000 3800 2    60   ~ 0
Black
Text Notes 4000 3500 2    60   ~ 0
Green
Text Notes 4000 3900 2    60   ~ 0
White
Text Notes 4000 4000 2    60   ~ 0
Red
Text Notes 4000 4100 2    60   ~ 0
Red
Text Notes 4000 4200 2    60   ~ 0
Red
Text Notes 4000 4300 2    60   ~ 0
Black
$Comp
L CONN_1 P9
U 1 1 5555F1A5
P 8900 3550
F 0 "P9" H 8980 3550 40  0000 L CNN
F 1 "CONN_1" H 8900 3605 30  0001 C CNN
F 2 "" H 8900 3550 60  0000 C CNN
F 3 "" H 8900 3550 60  0000 C CNN
	1    8900 3550
	-1   0    0    -1  
$EndComp
$Comp
L CONN_1 P4
U 1 1 5555F1D5
P 8500 3300
F 0 "P4" H 8580 3300 40  0000 L CNN
F 1 "CONN_1" H 8500 3355 30  0001 C CNN
F 2 "" H 8500 3300 60  0000 C CNN
F 3 "" H 8500 3300 60  0000 C CNN
	1    8500 3300
	1    0    0    -1  
$EndComp
$Comp
L CONN_1 P5
U 1 1 5555F1E4
P 8500 3550
F 0 "P5" H 8580 3550 40  0000 L CNN
F 1 "CONN_1" H 8500 3605 30  0001 C CNN
F 2 "" H 8500 3550 60  0000 C CNN
F 3 "" H 8500 3550 60  0000 C CNN
	1    8500 3550
	1    0    0    -1  
$EndComp
$Comp
L CONN_1 P8
U 1 1 5555F1F3
P 8900 3300
F 0 "P8" H 8980 3300 40  0000 L CNN
F 1 "CONN_1" H 8900 3355 30  0001 C CNN
F 2 "" H 8900 3300 60  0000 C CNN
F 3 "" H 8900 3300 60  0000 C CNN
	1    8900 3300
	-1   0    0    -1  
$EndComp
$Comp
L +3.3V #PWR01
U 1 1 5555F2CE
P 5900 3150
F 0 "#PWR01" H 5900 3110 30  0001 C CNN
F 1 "+3.3V" H 5900 3260 30  0000 C CNN
F 2 "" H 5900 3150 60  0000 C CNN
F 3 "" H 5900 3150 60  0000 C CNN
	1    5900 3150
	1    0    0    -1  
$EndComp
NoConn ~ 3950 3900
Wire Wire Line
	5450 3400 5750 3400
Wire Wire Line
	5750 3400 5750 3800
Wire Wire Line
	5450 3600 5900 3600
Wire Wire Line
	5750 3800 5450 3800
Connection ~ 5750 3600
Wire Wire Line
	3950 3400 3650 3400
Wire Wire Line
	3650 3400 3650 4300
Wire Wire Line
	3500 3600 3950 3600
Wire Wire Line
	3650 3700 3950 3700
Connection ~ 3650 3600
Wire Wire Line
	3650 3800 3950 3800
Connection ~ 3650 3700
Wire Wire Line
	3650 4300 3950 4300
Connection ~ 3650 3800
Wire Wire Line
	5450 4100 5750 4100
Wire Wire Line
	5750 4100 5750 4200
Wire Wire Line
	5450 4200 6050 4200
Wire Wire Line
	5450 3200 5900 3200
Wire Wire Line
	5750 3200 5750 3300
Wire Wire Line
	5750 3300 5450 3300
Wire Wire Line
	3750 4000 3950 4000
Wire Wire Line
	3750 4100 3950 4100
Wire Wire Line
	3350 4200 3950 4200
Connection ~ 3750 4100
Wire Wire Line
	5900 3600 5900 4950
Wire Wire Line
	3500 4800 3500 3600
Wire Wire Line
	3750 4000 3750 4200
Wire Wire Line
	5900 3200 5900 3150
Connection ~ 5750 3200
Wire Wire Line
	5450 3500 6200 3500
Wire Wire Line
	6050 3500 6050 3700
Wire Wire Line
	6050 3700 5450 3700
$Comp
L +5V #PWR02
U 1 1 5555F43C
P 6200 3450
F 0 "#PWR02" H 6200 3540 20  0001 C CNN
F 1 "+5V" H 6200 3540 30  0000 C CNN
F 2 "" H 6200 3450 60  0000 C CNN
F 3 "" H 6200 3450 60  0000 C CNN
	1    6200 3450
	1    0    0    -1  
$EndComp
Wire Wire Line
	6200 3500 6200 3450
Connection ~ 6050 3500
$Comp
L +12V #PWR03
U 1 1 5555F46D
P 6050 4150
F 0 "#PWR03" H 6050 4100 20  0001 C CNN
F 1 "+12V" H 6050 4250 30  0000 C CNN
F 2 "" H 6050 4150 60  0000 C CNN
F 3 "" H 6050 4150 60  0000 C CNN
	1    6050 4150
	1    0    0    -1  
$EndComp
Wire Wire Line
	6050 4200 6050 4150
Connection ~ 5750 4200
$Comp
L +5V #PWR04
U 1 1 5555F49E
P 3350 4150
F 0 "#PWR04" H 3350 4240 20  0001 C CNN
F 1 "+5V" H 3350 4240 30  0000 C CNN
F 2 "" H 3350 4150 60  0000 C CNN
F 3 "" H 3350 4150 60  0000 C CNN
	1    3350 4150
	1    0    0    -1  
$EndComp
Wire Wire Line
	3350 4200 3350 4150
Connection ~ 3750 4200
$Comp
L +3.3V #PWR05
U 1 1 5555F517
P 6200 4250
F 0 "#PWR05" H 6200 4210 30  0001 C CNN
F 1 "+3.3V" H 6200 4360 30  0000 C CNN
F 2 "" H 6200 4250 60  0000 C CNN
F 3 "" H 6200 4250 60  0000 C CNN
	1    6200 4250
	1    0    0    -1  
$EndComp
Wire Wire Line
	5450 4300 6200 4300
Wire Wire Line
	6200 4300 6200 4250
$Comp
L CONN_1 P3
U 1 1 5555F5A2
P 8500 3050
F 0 "P3" H 8580 3050 40  0000 L CNN
F 1 "CONN_1" H 8500 3105 30  0001 C CNN
F 2 "" H 8500 3050 60  0000 C CNN
F 3 "" H 8500 3050 60  0000 C CNN
	1    8500 3050
	1    0    0    -1  
$EndComp
$Comp
L CONN_1 P7
U 1 1 5555F5A8
P 8900 3050
F 0 "P7" H 8980 3050 40  0000 L CNN
F 1 "CONN_1" H 8900 3105 30  0001 C CNN
F 2 "" H 8900 3050 60  0000 C CNN
F 3 "" H 8900 3050 60  0000 C CNN
	1    8900 3050
	-1   0    0    -1  
$EndComp
$Comp
L CONN_1 P1
U 1 1 5555F5D9
P 3650 3000
F 0 "P1" H 3730 3000 40  0000 L CNN
F 1 "CONN_1" H 3650 3055 30  0001 C CNN
F 2 "" H 3650 3000 60  0000 C CNN
F 3 "" H 3650 3000 60  0000 C CNN
	1    3650 3000
	0    1    -1   0   
$EndComp
$Comp
L R R5
U 1 1 5555F9B2
P 7300 4450
F 0 "R5" V 7380 4450 40  0000 C CNN
F 1 "68R" V 7307 4451 40  0000 C CNN
F 2 "~" V 7230 4450 30  0000 C CNN
F 3 "~" H 7300 4450 30  0000 C CNN
	1    7300 4450
	1    0    0    -1  
$EndComp
$Comp
L LED D3
U 1 1 5555F9EE
P 7300 3900
F 0 "D3" H 7300 4000 50  0000 C CNN
F 1 "LED" H 7300 3800 50  0000 C CNN
F 2 "~" H 7300 3900 60  0000 C CNN
F 3 "~" H 7300 3900 60  0000 C CNN
	1    7300 3900
	0    1    1    0   
$EndComp
$Comp
L R R6
U 1 1 5555FA18
P 7600 4450
F 0 "R6" V 7680 4450 40  0000 C CNN
F 1 "150R" V 7607 4451 40  0000 C CNN
F 2 "~" V 7530 4450 30  0000 C CNN
F 3 "~" H 7600 4450 30  0000 C CNN
	1    7600 4450
	1    0    0    -1  
$EndComp
$Comp
L LED D4
U 1 1 5555FA1E
P 7600 3900
F 0 "D4" H 7600 4000 50  0000 C CNN
F 1 "LED" H 7600 3800 50  0000 C CNN
F 2 "~" H 7600 3900 60  0000 C CNN
F 3 "~" H 7600 3900 60  0000 C CNN
	1    7600 3900
	0    1    1    0   
$EndComp
$Comp
L R R7
U 1 1 5555FA38
P 7900 4450
F 0 "R7" V 7980 4450 40  0000 C CNN
F 1 "510R" V 7907 4451 40  0000 C CNN
F 2 "~" V 7830 4450 30  0000 C CNN
F 3 "~" H 7900 4450 30  0000 C CNN
	1    7900 4450
	1    0    0    -1  
$EndComp
$Comp
L LED D5
U 1 1 5555FA3E
P 7900 3900
F 0 "D5" H 7900 4000 50  0000 C CNN
F 1 "LED" H 7900 3800 50  0000 C CNN
F 2 "~" H 7900 3900 60  0000 C CNN
F 3 "~" H 7900 3900 60  0000 C CNN
	1    7900 3900
	0    1    1    0   
$EndComp
$Comp
L R R8
U 1 1 5555FA44
P 8200 4450
F 0 "R8" V 8280 4450 40  0000 C CNN
F 1 "510R" V 8207 4451 40  0000 C CNN
F 2 "~" V 8130 4450 30  0000 C CNN
F 3 "~" H 8200 4450 30  0000 C CNN
	1    8200 4450
	1    0    0    -1  
$EndComp
$Comp
L LED D6
U 1 1 5555FA4A
P 8200 3900
F 0 "D6" H 8200 4000 50  0000 C CNN
F 1 "LED" H 8200 3800 50  0000 C CNN
F 2 "~" H 8200 3900 60  0000 C CNN
F 3 "~" H 8200 3900 60  0000 C CNN
	1    8200 3900
	0    1    -1   0   
$EndComp
Wire Wire Line
	8200 4100 8200 4200
Wire Wire Line
	7900 4100 7900 4200
Wire Wire Line
	7600 4100 7600 4200
Wire Wire Line
	7300 4100 7300 4200
$Comp
L CONN_1 P2
U 1 1 5555FB50
P 8500 2800
F 0 "P2" H 8580 2800 40  0000 L CNN
F 1 "CONN_1" H 8500 2855 30  0001 C CNN
F 2 "" H 8500 2800 60  0000 C CNN
F 3 "" H 8500 2800 60  0000 C CNN
	1    8500 2800
	1    0    0    -1  
$EndComp
$Comp
L CONN_1 P6
U 1 1 5555FB56
P 8900 2800
F 0 "P6" H 8980 2800 40  0000 L CNN
F 1 "CONN_1" H 8900 2855 30  0001 C CNN
F 2 "" H 8900 2800 60  0000 C CNN
F 3 "" H 8900 2800 60  0000 C CNN
	1    8900 2800
	-1   0    0    -1  
$EndComp
$Comp
L +3.3V #PWR06
U 1 1 5555FB61
P 7200 2750
F 0 "#PWR06" H 7200 2710 30  0001 C CNN
F 1 "+3.3V" H 7200 2860 30  0000 C CNN
F 2 "" H 7200 2750 60  0000 C CNN
F 3 "" H 7200 2750 60  0000 C CNN
	1    7200 2750
	1    0    0    -1  
$EndComp
$Comp
L +5V #PWR07
U 1 1 5555FB67
P 7500 3000
F 0 "#PWR07" H 7500 3090 20  0001 C CNN
F 1 "+5V" H 7500 3090 30  0000 C CNN
F 2 "" H 7500 3000 60  0000 C CNN
F 3 "" H 7500 3000 60  0000 C CNN
	1    7500 3000
	1    0    0    -1  
$EndComp
$Comp
L +12V #PWR08
U 1 1 5555FB6D
P 7800 3250
F 0 "#PWR08" H 7800 3200 20  0001 C CNN
F 1 "+12V" H 7800 3350 30  0000 C CNN
F 2 "" H 7800 3250 60  0000 C CNN
F 3 "" H 7800 3250 60  0000 C CNN
	1    7800 3250
	1    0    0    -1  
$EndComp
$Comp
L -12V #PWR09
U 1 1 5555FB75
P 3500 3200
F 0 "#PWR09" H 3500 3330 20  0001 C CNN
F 1 "-12V" H 3500 3300 30  0000 C CNN
F 2 "" H 3500 3200 60  0000 C CNN
F 3 "" H 3500 3200 60  0000 C CNN
	1    3500 3200
	1    0    0    -1  
$EndComp
Wire Wire Line
	3950 3200 3650 3200
Wire Wire Line
	3650 3200 3650 3150
Wire Wire Line
	3950 3300 3500 3300
Wire Wire Line
	3500 3300 3500 3200
$Comp
L -12V #PWR010
U 1 1 5555FC94
P 8100 3500
F 0 "#PWR010" H 8100 3630 20  0001 C CNN
F 1 "-12V" H 8100 3600 30  0000 C CNN
F 2 "" H 8100 3500 60  0000 C CNN
F 3 "" H 8100 3500 60  0000 C CNN
	1    8100 3500
	1    0    0    -1  
$EndComp
Wire Wire Line
	8100 3550 8350 3550
Wire Wire Line
	7800 3300 8350 3300
Wire Wire Line
	7500 3050 8350 3050
Wire Wire Line
	7200 2800 8350 2800
Wire Wire Line
	7300 2800 7300 3700
Wire Wire Line
	9050 2800 9250 2800
Wire Wire Line
	9250 3050 9050 3050
Wire Wire Line
	9250 3300 9050 3300
Connection ~ 9250 3050
Wire Wire Line
	9250 3550 9050 3550
Connection ~ 9250 3300
Wire Wire Line
	9250 4800 2350 4800
Wire Wire Line
	8200 4800 8200 4700
Connection ~ 9250 3550
Wire Wire Line
	7900 4800 7900 4700
Connection ~ 8200 4800
Wire Wire Line
	7600 4800 7600 4700
Connection ~ 7900 4800
Wire Wire Line
	7300 4800 7300 4700
Connection ~ 7600 4800
Connection ~ 8200 3550
Connection ~ 7900 3300
Connection ~ 7600 3050
Connection ~ 7300 2800
$Comp
L GND #PWR011
U 1 1 5556011B
P 5900 4950
F 0 "#PWR011" H 5900 4950 30  0001 C CNN
F 1 "GND" H 5900 4880 30  0001 C CNN
F 2 "" H 5900 4950 60  0000 C CNN
F 3 "" H 5900 4950 60  0000 C CNN
	1    5900 4950
	1    0    0    -1  
$EndComp
Text Notes 8950 2800 0    60   ~ 0
Black
Text Notes 8950 3050 0    60   ~ 0
Black
Text Notes 8950 3300 0    60   ~ 0
Black
Text Notes 8950 3550 0    60   ~ 0
Black
Text Notes 8400 3300 2    60   ~ 0
Yellow
Text Notes 8400 3050 2    60   ~ 0
Red
Text Notes 8350 2800 2    60   ~ 0
Green
Text Notes 8400 3550 2    60   ~ 0
Blue
Wire Wire Line
	7200 2800 7200 2750
Wire Wire Line
	7500 3000 7500 3050
Wire Wire Line
	7800 3250 7800 3300
Wire Wire Line
	8100 3500 8100 3550
Wire Wire Line
	7600 3050 7600 3700
Wire Wire Line
	7900 3300 7900 3700
Wire Wire Line
	8200 3550 8200 3700
Connection ~ 7300 4800
Connection ~ 5900 4800
Wire Wire Line
	2950 4700 2950 4800
Connection ~ 3500 4800
$Comp
L R R2
U 1 1 555606CA
P 2600 4450
F 0 "R2" V 2680 4450 40  0000 C CNN
F 1 "4R7" V 2607 4451 40  0000 C CNN
F 2 "~" V 2530 4450 30  0000 C CNN
F 3 "~" H 2600 4450 30  0000 C CNN
	1    2600 4450
	1    0    0    -1  
$EndComp
$Comp
L R R1
U 1 1 555606D9
P 2350 4450
F 0 "R1" V 2430 4450 40  0000 C CNN
F 1 "2.2R" V 2357 4451 40  0000 C CNN
F 2 "~" V 2280 4450 30  0000 C CNN
F 3 "~" H 2350 4450 30  0000 C CNN
	1    2350 4450
	1    0    0    -1  
$EndComp
Wire Wire Line
	2600 4700 2600 4800
Connection ~ 2950 4800
Wire Wire Line
	2350 4800 2350 4700
Connection ~ 2600 4800
$Comp
L +3.3V #PWR012
U 1 1 555607E0
P 2350 4100
F 0 "#PWR012" H 2350 4060 30  0001 C CNN
F 1 "+3.3V" H 2350 4210 30  0000 C CNN
F 2 "" H 2350 4100 60  0000 C CNN
F 3 "" H 2350 4100 60  0000 C CNN
	1    2350 4100
	1    0    0    -1  
$EndComp
$Comp
L +5V #PWR013
U 1 1 555607E6
P 2600 4100
F 0 "#PWR013" H 2600 4190 20  0001 C CNN
F 1 "+5V" H 2600 4190 30  0000 C CNN
F 2 "" H 2600 4100 60  0000 C CNN
F 3 "" H 2600 4100 60  0000 C CNN
	1    2600 4100
	1    0    0    -1  
$EndComp
Wire Wire Line
	2600 4100 2600 4200
Wire Wire Line
	2350 4100 2350 4200
$Comp
L R R4
U 1 1 555609F3
P 7000 4450
F 0 "R4" V 7080 4450 40  0000 C CNN
F 1 "180R" V 7007 4451 40  0000 C CNN
F 2 "~" V 6930 4450 30  0000 C CNN
F 3 "~" H 7000 4450 30  0000 C CNN
	1    7000 4450
	1    0    0    -1  
$EndComp
$Comp
L R R3
U 1 1 555609F9
P 6700 4450
F 0 "R3" V 6780 4450 40  0000 C CNN
F 1 "180R" V 6707 4451 40  0000 C CNN
F 2 "~" V 6630 4450 30  0000 C CNN
F 3 "~" H 6700 4450 30  0000 C CNN
	1    6700 4450
	1    0    0    -1  
$EndComp
$Comp
L LED D2
U 1 1 555609FF
P 7000 3900
F 0 "D2" H 7000 4000 50  0000 C CNN
F 1 "LED" H 7000 3800 50  0000 C CNN
F 2 "~" H 7000 3900 60  0000 C CNN
F 3 "~" H 7000 3900 60  0000 C CNN
	1    7000 3900
	0    1    1    0   
$EndComp
$Comp
L LED D1
U 1 1 55560A05
P 6700 3900
F 0 "D1" H 6700 4000 50  0000 C CNN
F 1 "LED" H 6700 3800 50  0000 C CNN
F 2 "~" H 6700 3900 60  0000 C CNN
F 3 "~" H 6700 3900 60  0000 C CNN
	1    6700 3900
	0    1    1    0   
$EndComp
Wire Wire Line
	6700 4800 6700 4700
Wire Wire Line
	7000 4800 7000 4700
Connection ~ 6700 4800
Connection ~ 7000 4800
Wire Wire Line
	9250 2800 9250 4800
Wire Wire Line
	7000 4100 7000 4200
Wire Wire Line
	6700 4100 6700 4200
Wire Wire Line
	7000 3700 7000 3300
Wire Wire Line
	7000 3300 6350 3300
Wire Wire Line
	6350 3300 6350 3900
Wire Wire Line
	6350 3900 5450 3900
Wire Wire Line
	6700 3700 6700 3500
Wire Wire Line
	6700 3500 6450 3500
Wire Wire Line
	6450 3500 6450 4000
Wire Wire Line
	6450 4000 5450 4000
Text Notes 1800 4900 0    60   ~ 0
R1 & R2\n5W Power Resistors
Text Notes 7050 5050 0    60   ~ 0
D1, AC On, Red\nD2, DC On, Red\nD3, +3.3V, Green\nD4, +5V, Green\nD5, +12V, Green\nD6, -12V, Green
Text Notes 7650 2600 0    60   ~ 0
4MM Terminal Posts with Bannana Socket
$Comp
L SWITCH_INV SW1
U 1 1 55577E6C
P 3050 4200
F 0 "SW1" H 2850 4350 50  0000 C CNN
F 1 "SWITCH_INV" H 2900 4050 50  0000 C CNN
F 2 "~" H 3050 4200 60  0000 C CNN
F 3 "~" H 3050 4200 60  0000 C CNN
	1    3050 4200
	0    1    1    0   
$EndComp
NoConn ~ 3150 4700
Wire Wire Line
	3950 3500 3050 3500
Wire Wire Line
	3050 3500 3050 3700
$EndSCHEMATC
