EESchema Schematic File Version 2
LIBS:power
LIBS:device
LIBS:transistors
LIBS:conn
LIBS:linear
LIBS:regul
LIBS:74xx
LIBS:cmos4000
LIBS:adc-dac
LIBS:memory
LIBS:xilinx
LIBS:microcontrollers
LIBS:dsp
LIBS:microchip
LIBS:analog_switches
LIBS:motorola
LIBS:texas
LIBS:intel
LIBS:audio
LIBS:interface
LIBS:digital-audio
LIBS:philips
LIBS:display
LIBS:cypress
LIBS:siliconi
LIBS:opto
LIBS:atmel
LIBS:contrib
LIBS:valves
LIBS:IsolatedCurrentProbe-cache
EELAYER 25 0
EELAYER END
$Descr A4 11693 8268
encoding utf-8
Sheet 1 1
Title "Isolated Current Probe for HV Applications"
Date "2016-03-18"
Rev "1.0"
Comp "Kirby & Co"
Comment1 "http://creativecommons.org/licenses/by-sa/3.0"
Comment2 "Licensing: CC Attribution-Share Alike 3.0 Unported"
Comment3 "Author: Andy Kirby (andy@kirbyand.co.uk, www.kirbyand.co.uk)"
Comment4 ""
$EndDescr
$Comp
L LM358N U1
U 1 1 56EC162D
P 4200 3400
F 0 "U1" H 4150 3600 50  0000 L CNN
F 1 "LM358N" H 4150 3150 50  0000 L CNN
F 2 "Housings_DIP:DIP-8_W7.62mm" H 4200 3400 50  0001 C CNN
F 3 "" H 4200 3400 50  0000 C CNN
	1    4200 3400
	1    0    0    -1  
$EndComp
$Comp
L LM358N U1
U 2 1 56EC1668
P 5750 3300
F 0 "U1" H 5700 3500 50  0000 L CNN
F 1 "LM358N" H 5700 3050 50  0000 L CNN
F 2 "Housings_DIP:DIP-8_W7.62mm" H 5750 3300 50  0001 C CNN
F 3 "" H 5750 3300 50  0000 C CNN
	2    5750 3300
	1    0    0    -1  
$EndComp
$Comp
L POT RV1
U 1 1 56EC1806
P 3500 3300
F 0 "RV1" H 3500 3220 50  0000 C CNN
F 1 "10K" H 3500 3300 50  0000 C CNN
F 2 "Potentiometers:Potentiometer_Bourns_3296W_3-8Zoll_Inline_ScrewUp" H 3500 3300 50  0001 C CNN
F 3 "" H 3500 3300 50  0000 C CNN
	1    3500 3300
	0    1    1    0   
$EndComp
$Comp
L R R1
U 1 1 56EC185A
P 5000 3400
F 0 "R1" V 5080 3400 50  0000 C CNN
F 1 "1K" V 5000 3400 50  0000 C CNN
F 2 "Resistors_ThroughHole:Resistor_Horizontal_RM7mm" V 4930 3400 50  0001 C CNN
F 3 "" H 5000 3400 50  0000 C CNN
	1    5000 3400
	0    1    1    0   
$EndComp
$Comp
L GND #PWR01
U 1 1 56EC18BC
P 4100 3800
F 0 "#PWR01" H 4100 3550 50  0001 C CNN
F 1 "GND" H 4100 3650 50  0000 C CNN
F 2 "" H 4100 3800 50  0000 C CNN
F 3 "" H 4100 3800 50  0000 C CNN
	1    4100 3800
	1    0    0    -1  
$EndComp
$Comp
L VCC #PWR02
U 1 1 56EC18DC
P 4100 3000
F 0 "#PWR02" H 4100 2850 50  0001 C CNN
F 1 "VCC" H 4100 3150 50  0000 C CNN
F 2 "" H 4100 3000 50  0000 C CNN
F 3 "" H 4100 3000 50  0000 C CNN
	1    4100 3000
	1    0    0    -1  
$EndComp
$Comp
L VCC #PWR03
U 1 1 56EC19A0
P 5650 2900
F 0 "#PWR03" H 5650 2750 50  0001 C CNN
F 1 "VCC" H 5650 3050 50  0000 C CNN
F 2 "" H 5650 2900 50  0000 C CNN
F 3 "" H 5650 2900 50  0000 C CNN
	1    5650 2900
	1    0    0    -1  
$EndComp
$Comp
L GND #PWR04
U 1 1 56EC19D5
P 5650 3700
F 0 "#PWR04" H 5650 3450 50  0001 C CNN
F 1 "GND" H 5650 3550 50  0000 C CNN
F 2 "" H 5650 3700 50  0000 C CNN
F 3 "" H 5650 3700 50  0000 C CNN
	1    5650 3700
	1    0    0    -1  
$EndComp
Wire Wire Line
	5650 3700 5650 3600
Wire Wire Line
	4100 3800 4100 3700
Wire Wire Line
	4100 3100 4100 3000
Wire Wire Line
	3900 3500 3800 3500
Wire Wire Line
	3800 3500 3800 4050
Wire Wire Line
	3800 4050 4600 4050
Wire Wire Line
	4600 4050 4600 3400
Connection ~ 4600 3400
$Comp
L R R2
U 1 1 56EC1A2C
P 5750 4050
F 0 "R2" V 5830 4050 50  0000 C CNN
F 1 "100K" V 5750 4050 50  0000 C CNN
F 2 "Resistors_ThroughHole:Resistor_Horizontal_RM7mm" V 5680 4050 50  0001 C CNN
F 3 "" H 5750 4050 50  0000 C CNN
	1    5750 4050
	0    1    1    0   
$EndComp
$Comp
L VCC #PWR05
U 1 1 56EC1A65
P 3500 3000
F 0 "#PWR05" H 3500 2850 50  0001 C CNN
F 1 "VCC" H 3500 3150 50  0000 C CNN
F 2 "" H 3500 3000 50  0000 C CNN
F 3 "" H 3500 3000 50  0000 C CNN
	1    3500 3000
	1    0    0    -1  
$EndComp
$Comp
L GND #PWR06
U 1 1 56EC1A84
P 3500 3800
F 0 "#PWR06" H 3500 3550 50  0001 C CNN
F 1 "GND" H 3500 3650 50  0000 C CNN
F 2 "" H 3500 3800 50  0000 C CNN
F 3 "" H 3500 3800 50  0000 C CNN
	1    3500 3800
	1    0    0    -1  
$EndComp
Wire Wire Line
	3500 3450 3500 3800
Wire Wire Line
	3500 3000 3500 3150
Wire Wire Line
	3650 3300 3900 3300
Wire Wire Line
	4500 3400 4850 3400
Wire Wire Line
	5150 3400 5450 3400
Wire Wire Line
	6050 3300 6850 3300
Wire Wire Line
	6150 3300 6150 4050
Wire Wire Line
	6150 4050 5900 4050
Wire Wire Line
	5600 4050 5350 4050
Wire Wire Line
	5350 4050 5350 3400
Connection ~ 5350 3400
Text Notes 2700 3350 0    60   ~ 0
Multiturn\nPotentiometer
$Comp
L CONN_01X03 P2
U 1 1 56EC1CE9
P 7050 3300
F 0 "P2" H 7050 3500 50  0000 C CNN
F 1 "CONN_01X03" V 7150 3300 50  0000 C CNN
F 2 "Pin_Headers:Pin_Header_Straight_1x03" H 7050 3300 50  0001 C CNN
F 3 "" H 7050 3300 50  0000 C CNN
	1    7050 3300
	1    0    0    -1  
$EndComp
Connection ~ 6150 3300
$Comp
L VCC #PWR07
U 1 1 56EC1D51
P 6750 3100
F 0 "#PWR07" H 6750 2950 50  0001 C CNN
F 1 "VCC" H 6750 3250 50  0000 C CNN
F 2 "" H 6750 3100 50  0000 C CNN
F 3 "" H 6750 3100 50  0000 C CNN
	1    6750 3100
	1    0    0    -1  
$EndComp
$Comp
L GND #PWR08
U 1 1 56EC1D74
P 6750 3500
F 0 "#PWR08" H 6750 3250 50  0001 C CNN
F 1 "GND" H 6750 3350 50  0000 C CNN
F 2 "" H 6750 3500 50  0000 C CNN
F 3 "" H 6750 3500 50  0000 C CNN
	1    6750 3500
	1    0    0    -1  
$EndComp
Wire Wire Line
	6450 3400 6850 3400
Wire Wire Line
	6750 3400 6750 3500
Wire Wire Line
	6450 3200 6850 3200
Wire Wire Line
	6750 3200 6750 3100
$Comp
L CONN_01X03 P1
U 1 1 56EC1F6D
P 5000 2400
F 0 "P1" H 5000 2600 50  0000 C CNN
F 1 "CONN_01X03" V 5100 2400 50  0000 C CNN
F 2 "Pin_Headers:Pin_Header_Straight_1x03" H 5000 2400 50  0001 C CNN
F 3 "" H 5000 2400 50  0000 C CNN
	1    5000 2400
	0    -1   -1   0   
$EndComp
$Comp
L VCC #PWR09
U 1 1 56EC1FDC
P 4650 2550
F 0 "#PWR09" H 4650 2400 50  0001 C CNN
F 1 "VCC" H 4650 2700 50  0000 C CNN
F 2 "" H 4650 2550 50  0000 C CNN
F 3 "" H 4650 2550 50  0000 C CNN
	1    4650 2550
	1    0    0    -1  
$EndComp
$Comp
L GND #PWR010
U 1 1 56EC2003
P 5100 2700
F 0 "#PWR010" H 5100 2450 50  0001 C CNN
F 1 "GND" H 5100 2550 50  0000 C CNN
F 2 "" H 5100 2700 50  0000 C CNN
F 3 "" H 5100 2700 50  0000 C CNN
	1    5100 2700
	1    0    0    -1  
$EndComp
Wire Wire Line
	5100 2600 5100 2700
Wire Wire Line
	5000 2600 5000 3200
Wire Wire Line
	5000 3200 5450 3200
Wire Wire Line
	4650 2550 4650 2650
Wire Wire Line
	4650 2650 4900 2650
Wire Wire Line
	4900 2650 4900 2600
Text Notes 3800 4400 0    60   ~ 0
Adjustable Negative\nDC Offset
Text Notes 5500 4300 0    60   ~ 0
x100 Gain
Text Notes 4600 2150 0    60   ~ 0
A1324LUA-T\nLinear Hall Sensor
$Comp
L VCC #PWR011
U 1 1 56EC2463
P 4600 5000
F 0 "#PWR011" H 4600 4850 50  0001 C CNN
F 1 "VCC" H 4600 5150 50  0000 C CNN
F 2 "" H 4600 5000 50  0000 C CNN
F 3 "" H 4600 5000 50  0000 C CNN
	1    4600 5000
	1    0    0    -1  
$EndComp
$Comp
L GND #PWR012
U 1 1 56EC248A
P 4600 5500
F 0 "#PWR012" H 4600 5250 50  0001 C CNN
F 1 "GND" H 4600 5350 50  0000 C CNN
F 2 "" H 4600 5500 50  0000 C CNN
F 3 "" H 4600 5500 50  0000 C CNN
	1    4600 5500
	1    0    0    -1  
$EndComp
$Comp
L C C2
U 1 1 56EC24AC
P 4600 5250
F 0 "C2" H 4625 5350 50  0000 L CNN
F 1 "10n" H 4625 5150 50  0000 L CNN
F 2 "Capacitors_ThroughHole:C_Disc_D6_P5" H 4638 5100 50  0001 C CNN
F 3 "" H 4600 5250 50  0000 C CNN
	1    4600 5250
	1    0    0    -1  
$EndComp
$Comp
L C C1
U 1 1 56EC2557
P 4250 5250
F 0 "C1" H 4275 5350 50  0000 L CNN
F 1 "10n" H 4275 5150 50  0000 L CNN
F 2 "Capacitors_ThroughHole:C_Disc_D6_P5" H 4288 5100 50  0001 C CNN
F 3 "" H 4250 5250 50  0000 C CNN
	1    4250 5250
	1    0    0    -1  
$EndComp
$Comp
L C C3
U 1 1 56EC258E
P 4950 5250
F 0 "C3" H 4975 5350 50  0000 L CNN
F 1 "10n" H 4975 5150 50  0000 L CNN
F 2 "Capacitors_ThroughHole:C_Disc_D6_P5" H 4988 5100 50  0001 C CNN
F 3 "" H 4950 5250 50  0000 C CNN
	1    4950 5250
	1    0    0    -1  
$EndComp
Wire Wire Line
	4250 5100 4250 5050
Wire Wire Line
	4250 5050 4950 5050
Wire Wire Line
	4950 5050 4950 5100
Wire Wire Line
	4250 5400 4250 5450
Wire Wire Line
	4250 5450 4950 5450
Wire Wire Line
	4600 5400 4600 5500
Connection ~ 4600 5450
Wire Wire Line
	4600 5000 4600 5100
Connection ~ 4600 5050
Wire Wire Line
	4950 5450 4950 5400
Text Notes 7400 3400 0    60   ~ 0
Output voltage 34.5 mV per mA\nwhan used with a slotted toroid pickup\nwound with 10 turns
Text Notes 750  7550 0    60   ~ 0
Notes:-\n\nChosen hall sensor produces 5mV per Gaus.\nCalculations assume 6.9 Gaus per amperre turn on the sensing toroid.\nMeasurement range of interest is 0 to 25mA
Wire Wire Line
	5650 3000 5650 2900
$Comp
L PWR_FLAG #FLG013
U 1 1 56F7BF3C
P 6450 3100
F 0 "#FLG013" H 6450 3195 50  0001 C CNN
F 1 "PWR_FLAG" H 6450 3280 50  0000 C CNN
F 2 "" H 6450 3100 50  0000 C CNN
F 3 "" H 6450 3100 50  0000 C CNN
	1    6450 3100
	1    0    0    -1  
$EndComp
Wire Wire Line
	6450 3100 6450 3200
Connection ~ 6750 3200
$Comp
L PWR_FLAG #FLG014
U 1 1 56F7C083
P 6450 3500
F 0 "#FLG014" H 6450 3595 50  0001 C CNN
F 1 "PWR_FLAG" H 6450 3680 50  0000 C CNN
F 2 "" H 6450 3500 50  0000 C CNN
F 3 "" H 6450 3500 50  0000 C CNN
	1    6450 3500
	1    0    0    1   
$EndComp
Wire Wire Line
	6450 3500 6450 3400
Connection ~ 6750 3400
$EndSCHEMATC
